Result,Gender,Age_Group,Gre_Quant,Gre_Verbal,Toefl,Undergrad_GPA,WorkExYears
YES,0,0,160,152,107,3.32,0
YES,1,0,153,152,100,2.3,0
YES,1,1,157,153,99,2.05,2
YES,1,1,155,153,100,2.5,0
YES,0,1,155,149,97,2.25,0
YES,1,1,153,145,90,2.25,0
YES,1,3,161,156,101,2.48,4
YES,0,1,168,152,108,2.4735,1
YES,1,1,152,155,91,2,1
YES,0,1,164,144,100,2.6125,1.5
NO,0,2,159,150,90,2.5,0
YES,1,1,156,148,99,2.35,0
YES,1,1,155,152,100,3,2
YES,0,0,160,146,90,3.52,0
YES,0,1,167,149,96,2,1
YES,0,1,164,153,105,2.66,0
YES,0,1,165,145,102,2.485,2
YES,0,2,166,151,86,2.2,3
YES,0,1,162,144,99,2.0595,0
YES,1,0,160,143,114,2.72,0
YES,0,0,165,142,91,3.47,0
YES,1,2,120,103,113,3.19,0.2
YES,0,0,109,127,96,3.72,0.1
NO,1,0,113,125,110,3.1,0
NO,0,1,115,118,82,2.55,0.1
NO,0,2,135,160,106,2.98,0.2
YES,0,1,110,101,100,2.98,0
NO,1,2,165,149,92,2.87,0.3
NO,0,2,114,163,96,3.94,0.1
YES,0,1,126,147,82,2.87,0.1
YES,1,2,134,146,91,3.2,0
YES,0,1,118,159,105,2.96,0.2
NO,1,0,113,111,93,3.91,0.1
YES,0,0,127,156,96,3.6,0
NO,0,1,124,146,87,3.12,0
YES,0,2,134,152,97,3.52,0.3
YES,1,0,125,103,115,3.98,0
NO,0,0,125,105,91,3.35,0.2
NO,0,0,135,142,110,3.15,0
YES,0,1,113,163,80,3.79,0
NO,0,2,104,141,110,3.62,0.2
YES,0,2,147,137,116,2.89,0.1
NO,1,2,169,170,92,3.46,0.3
YES,1,1,107,105,115,2.59,0.2
NO,0,1,169,142,120,2.75,0.2
YES,1,1,144,140,114,3.71,0.3
YES,0,2,155,105,111,3.28,0.1
NO,0,1,136,100,81,2.94,0.1
YES,0,0,148,155,96,2.86,0.1
YES,1,2,117,157,89,2.99,0.1
YES,0,1,152,109,114,3.87,0.3
NO,0,2,117,130,85,3.78,0
NO,0,0,168,154,88,3.77,0.3
NO,1,1,168,152,91,2.66,0.1
NO,1,1,113,113,85,2.84,0.2
NO,1,0,123,153,89,3.82,0.2
NO,1,1,140,124,107,3.21,0.3
YES,1,2,109,113,95,3.17,0.3
NO,0,1,127,143,117,3.88,0.1
YES,0,2,169,111,91,2.67,0.2
YES,0,0,121,102,83,3.57,0
YES,1,2,131,105,80,3.31,0.2
YES,0,2,106,168,80,3.28,0.1
NO,0,2,150,127,120,3.41,0
NO,0,2,120,151,114,3.56,0
YES,1,0,129,162,102,2.7,0
YES,1,0,133,143,107,3.84,0.1
YES,1,2,148,153,104,3.93,0.3
YES,0,1,167,112,113,2.9,0.2
YES,1,2,119,137,94,3.24,0.3
NO,0,2,134,132,87,3.94,0.1
NO,0,1,166,129,81,2.97,0.3
NO,0,1,159,150,82,3.42,0
YES,1,2,141,103,104,2.88,0.1
YES,1,1,109,129,100,2.57,0.3
YES,0,2,114,132,95,3.02,0.3
NO,0,1,112,121,109,3.45,0.2
NO,0,2,113,170,82,3.58,0
NO,0,2,134,147,111,3.11,0.1
YES,1,1,112,151,109,2.86,0
NO,0,0,130,129,104,3.69,0.3
NO,1,0,150,167,82,3.94,0.2
YES,1,0,129,131,92,3.91,0
YES,1,1,120,162,105,3.07,0.2
YES,0,0,120,156,108,3.96,0.3
NO,0,0,146,128,85,3.2,0.2
YES,1,1,146,140,100,2.56,0.2
NO,1,1,148,141,80,3.67,0.1
NO,0,1,118,116,93,2.62,0
YES,0,2,141,150,110,3.79,0.2
NO,0,2,153,123,113,3.2,0
NO,0,0,131,166,82,3.64,0.2
NO,1,2,115,152,104,3.21,0
NO,0,0,143,117,95,2.81,0.1
YES,1,0,120,154,82,2.78,0.1
NO,0,0,139,152,111,3.33,0.1
NO,1,2,115,101,110,3.76,0.3
YES,1,1,151,110,81,3.26,0
YES,0,0,141,131,83,3.74,0
YES,0,2,169,128,88,2.51,0.3
YES,1,0,140,102,84,3.28,0.1
YES,0,1,112,146,83,3.36,0.3
NO,0,1,130,160,117,3.63,0.1
YES,1,2,143,154,85,2.68,0.1
NO,0,0,119,163,81,3.67,0
YES,0,0,133,115,119,3.58,0
YES,1,0,139,147,85,3.83,0
YES,1,2,132,143,91,3.09,0
NO,1,0,145,146,119,3.73,0
YES,0,1,130,157,91,3.95,0
YES,0,1,161,108,97,3.44,0.1
YES,0,1,102,155,110,2.97,0.2
NO,0,1,169,107,115,2.56,0.3
NO,0,1,165,137,92,3.66,0.1
NO,1,0,122,128,107,3.15,0
YES,1,1,123,109,81,3.11,0.2
NO,0,1,154,159,86,2.78,0.1
NO,0,0,126,113,88,3.8,0.1
YES,0,2,107,159,105,2.83,0.3
NO,0,0,136,162,107,2.81,0.1
NO,1,0,121,152,94,2.56,0.1
NO,0,0,140,149,85,3.66,0.3
NO,1,1,154,157,82,3.93,0.3
YES,1,2,129,123,86,3.76,0.1
NO,1,2,151,144,104,3.32,0.1
NO,1,2,139,121,110,3.32,0
NO,0,2,125,143,118,3.6,0.1
NO,0,2,102,165,81,3.48,0
NO,1,1,142,136,105,2.71,0.1
YES,1,1,169,147,105,3.76,0.3
YES,0,1,164,106,96,2.99,0.1
YES,1,0,151,130,88,2.62,0.1
NO,0,2,140,166,86,2.52,0
NO,0,2,147,112,109,3.88,0.1
YES,1,0,109,120,85,3.03,0.3
NO,0,0,165,153,93,2.52,0.2
NO,0,0,164,115,82,3.65,0.1
NO,0,1,161,150,114,2.81,0.3
NO,0,0,165,130,106,2.82,0.1
NO,0,0,164,146,83,3.06,0.3
NO,1,2,135,156,85,3.85,0
YES,0,2,143,170,114,3.12,0.1
YES,1,2,134,150,92,3.16,0.1
YES,0,1,135,113,118,2.53,0.1
NO,0,2,111,116,95,3.28,0.3
NO,0,1,165,107,87,3.11,0.1
YES,1,0,166,121,116,2.82,0
YES,0,2,159,161,114,3.25,0
YES,1,0,107,163,107,3.99,0.2
NO,1,1,132,153,102,2.69,0
NO,1,0,120,110,103,3.05,0.1
NO,0,1,101,114,119,3.45,0.3
YES,0,0,100,115,96,3.14,0
YES,0,1,107,106,111,3.56,0.3
YES,1,0,149,105,81,3.33,0.1
YES,0,2,142,114,95,2.98,0.1
NO,0,2,133,103,91,2.78,0.3
YES,0,0,127,113,101,2.81,0.1
YES,0,1,151,136,110,3.1,0.3
NO,0,2,159,143,109,2.51,0.1
YES,1,2,136,132,86,2.71,0.2
YES,1,0,119,170,100,3.01,0
NO,0,0,158,103,97,3.51,0.2
NO,0,2,168,120,110,2.74,0.2
NO,0,2,141,108,93,2.91,0.1
NO,0,0,145,136,108,3.81,0.1
NO,0,1,153,139,106,2.67,0
NO,1,1,137,154,84,2.8,0.1
YES,1,0,166,147,86,3.7,0.2
YES,1,1,168,154,116,3.85,0.2
YES,0,2,159,158,92,2.6,0.2
YES,1,0,162,113,82,3.54,0.1
YES,0,2,108,147,89,3.15,0.1
NO,0,0,106,160,86,3.05,0.3
NO,0,0,125,156,110,3.25,0
NO,0,0,144,149,116,3.33,0.2
YES,0,2,134,129,106,3.29,0.3
NO,1,1,120,155,115,3.21,0.3
YES,1,1,102,129,86,3.07,0
YES,1,2,114,160,111,2.76,0
NO,1,0,136,140,84,3.47,0.3
YES,1,0,144,132,87,2.88,0.3
YES,1,2,145,133,95,3.47,0.2
YES,1,2,164,113,81,3.82,0.1
NO,0,0,147,167,104,2.97,0.1
NO,0,2,147,159,110,2.75,0.3
NO,1,1,158,119,114,2.83,0
NO,0,2,170,118,105,2.67,0
NO,1,2,114,135,95,2.85,0.2
NO,1,0,120,106,110,3.98,0.2
YES,1,1,101,119,104,2.95,0
NO,1,2,129,144,113,3.63,0.2
NO,1,1,157,154,117,3.71,0.3
NO,0,2,118,100,92,3.76,0.3
YES,1,2,135,167,117,3.67,0
NO,0,0,138,141,116,2.68,0.1
NO,1,1,149,155,83,3.53,0.3
YES,0,0,146,115,106,2.88,0.1
NO,0,0,119,135,110,3.57,0.1
NO,1,1,107,146,110,2.64,0
YES,0,0,118,129,88,3.41,0.2
YES,0,0,134,156,85,2.65,0.2
NO,1,1,112,150,113,3.4,0.3
NO,0,1,115,121,108,3.74,0.2
NO,1,1,132,158,99,3.62,0.2
NO,0,1,120,169,87,3.69,0.1
YES,1,0,116,129,89,3.12,0.2
YES,0,0,120,138,119,2.78,0.2
NO,0,2,121,138,102,2.92,0.1
YES,0,2,119,156,108,3.36,0
NO,1,1,154,108,92,3.34,0
YES,0,2,124,106,99,3.65,0.1
YES,1,0,155,161,115,2.68,0
YES,0,0,131,116,100,3.21,0.1
NO,0,2,141,146,88,3.14,0
YES,1,2,113,167,85,3.98,0.1
NO,0,1,168,124,115,2.93,0
YES,1,0,136,114,109,3.57,0.1
NO,1,1,167,121,91,2.97,0.2
YES,0,0,147,137,91,3.04,0.3
YES,1,1,125,156,97,3.32,0.3
NO,0,1,137,109,95,3.68,0.3
NO,0,1,140,127,91,2.89,0
NO,0,0,152,139,94,3.06,0.1
NO,1,2,102,168,106,3.16,0.1
NO,1,1,169,123,107,3.54,0.2
NO,0,1,152,106,92,3.23,0
YES,1,0,128,100,92,2.7,0.1
NO,1,2,130,120,101,2.57,0.3
NO,0,2,152,113,119,2.55,0
YES,0,1,115,144,94,3.43,0.3
NO,0,0,123,145,119,3.14,0
NO,0,0,129,112,91,3.71,0.3
NO,1,0,101,161,117,2.7,0.3
YES,1,0,142,119,84,3.02,0.1
NO,0,1,100,124,111,2.68,0.1
NO,1,1,114,123,92,3.41,0.3
NO,0,1,161,160,109,3.17,0.2
NO,0,0,102,146,96,2.83,0.3
YES,1,0,157,162,98,2.5,0
NO,0,2,125,123,108,2.5,0.3
NO,0,1,103,165,113,3.78,0
NO,0,0,127,131,93,3.62,0.3
NO,1,1,154,127,106,3.46,0.1
YES,1,1,145,168,101,3.66,0.1
YES,1,1,148,122,95,3.03,0
NO,0,2,167,152,112,3.8,0.2
NO,0,2,169,129,96,4,0
YES,1,1,161,108,110,3.37,0.3
YES,1,2,132,165,89,3.49,0.1
YES,0,2,103,107,117,3.35,0
NO,1,0,142,132,88,2.6,0.2
YES,1,0,113,151,84,3.61,0.1
YES,1,1,152,131,96,3.21,0.1
YES,1,2,121,120,101,2.72,0.1
NO,1,0,159,102,89,2.61,0.1
NO,1,1,109,114,116,3.99,0.2
NO,1,0,116,168,108,3.8,0.2
YES,0,2,131,157,107,2.59,0.2
NO,1,0,144,127,89,3.45,0.1
NO,1,1,119,100,104,3.97,0.1
YES,0,0,139,159,84,3.04,0.2
NO,1,2,133,160,91,2.55,0
NO,0,1,122,165,89,3.03,0
YES,1,2,123,160,87,3.67,0.2
NO,0,2,158,118,93,3.52,0.1
YES,1,1,168,107,90,3.02,0.3
NO,1,1,117,122,103,3.48,0.3
NO,0,0,147,100,97,3.54,0
YES,0,0,157,120,95,3.06,0
NO,0,0,150,159,84,3.18,0.1
NO,1,2,101,151,110,2.72,0.1
YES,0,0,119,119,89,2.51,0.3
YES,1,2,125,165,112,3.46,0.3
NO,1,1,136,142,113,3.37,0.1
YES,0,1,145,128,110,3.97,0.1
YES,0,0,154,152,97,2.92,0.2
NO,1,0,147,118,90,2.84,0.2
YES,0,2,115,104,107,3.37,0.1
NO,1,2,110,103,113,3.33,0.3
NO,1,1,122,125,98,3.34,0
NO,1,0,146,157,110,3.83,0.1
NO,0,1,145,123,116,3.57,0.3
YES,0,2,111,164,105,3.05,0.3
YES,0,1,170,109,90,3.13,0.3
NO,1,2,156,113,117,3.12,0.1
YES,0,2,162,154,90,3.52,0
YES,0,0,109,141,83,3.43,0
YES,0,2,105,159,115,3.44,0.1
NO,0,1,124,145,107,3.81,0.1
NO,1,0,122,108,117,3.66,0
YES,0,2,145,152,108,2.68,0.2
YES,0,2,120,148,101,3.81,0
NO,1,2,107,162,115,3.55,0
YES,1,2,127,164,107,3.38,0.1
YES,0,1,133,130,87,3.52,0.3
YES,0,0,155,113,118,3.43,0
YES,1,2,135,132,90,3.25,0.1
NO,1,2,148,157,84,3.07,0.1
YES,0,1,153,143,107,2.63,0.1
NO,0,1,162,123,102,3.44,0
NO,0,2,135,112,97,3.22,0.2
YES,1,1,150,119,109,3.64,0.3
NO,0,0,151,100,83,2.68,0
YES,1,0,120,128,108,2.87,0
YES,1,0,159,162,97,2.78,0
NO,1,1,149,164,86,2.55,0.3
YES,0,0,131,156,86,3.28,0.3
NO,0,2,103,144,94,3.3,0
YES,1,2,137,113,100,3.86,0.1
NO,1,2,120,139,115,2.84,0.2
NO,1,1,101,119,101,3.33,0.2
YES,1,2,124,156,85,3.71,0.1
NO,1,1,109,108,86,2.62,0.3
NO,0,0,124,115,115,3.19,0.2
NO,1,2,151,141,119,3.64,0.3
NO,1,0,100,162,101,2.55,0.1
YES,0,1,118,162,90,2.64,0
YES,1,0,169,131,101,2.85,0.2
NO,0,2,132,144,99,3.08,0
NO,0,0,125,122,87,3.19,0
NO,1,2,149,116,88,3.3,0
NO,0,2,144,122,104,3.95,0
NO,0,2,164,157,102,3.55,0.1
YES,0,1,162,139,118,3.96,0.3
NO,0,0,145,134,120,3,0.2
NO,0,0,161,124,82,2.75,0.3
YES,0,1,168,138,87,3.4,0.2
NO,1,2,132,169,106,3.6,0
NO,1,2,101,169,98,2.99,0
YES,0,1,108,143,117,3.58,0.1
YES,1,2,117,107,103,2.94,0.2
NO,0,2,119,132,109,3.74,0.2
NO,0,2,111,148,88,2.53,0
NO,1,2,166,167,109,3.21,0.1
NO,0,2,104,170,110,3.8,0
NO,1,1,166,107,100,3.64,0
YES,0,1,161,155,111,3.74,0.1
NO,1,0,119,117,105,2.83,0.2
YES,1,1,112,144,111,3.61,0.3
YES,1,2,124,157,106,3.02,0
YES,0,1,109,158,109,3.65,0.3
NO,1,1,125,158,114,3.61,0.3
NO,1,1,170,131,113,3.98,0.1
NO,0,0,133,101,103,2.88,0
YES,0,2,164,114,90,3.21,0.3
NO,1,0,144,170,89,3.27,0.3
NO,0,0,166,137,104,3.27,0
NO,1,2,165,117,98,3.62,0.2
YES,1,0,130,107,81,2.85,0.1
YES,1,2,151,166,98,3.18,0.3
NO,0,2,101,116,120,3.28,0.3
NO,0,0,155,156,105,3.33,0.1
YES,0,1,165,161,91,3.28,0.3
NO,0,2,162,107,101,3.07,0
NO,0,2,105,152,104,2.76,0.3
YES,0,1,125,152,108,3.28,0.3
YES,0,1,101,124,86,2.83,0.3
YES,0,1,115,116,110,2.8,0
YES,1,2,100,114,91,2.78,0.1
NO,0,1,168,135,107,2.75,0
YES,1,0,166,167,112,2.84,0.3
YES,1,1,115,121,95,3.81,0.1
YES,0,2,126,128,93,3.2,0.1
NO,0,1,163,131,112,2.9,0.3
NO,1,2,154,167,93,2.93,0
NO,1,2,108,168,120,2.65,0.1
NO,0,0,115,154,109,3.57,0.2
YES,0,2,149,133,113,3.21,0
NO,0,1,138,128,100,3.5,0.1
YES,1,1,134,158,86,3.98,0.1
NO,0,0,124,161,107,2.67,0.2
NO,1,0,117,115,113,3.62,0
YES,0,0,150,139,103,3.67,0.2
NO,0,2,143,109,101,2.59,0.3
NO,0,2,155,153,109,2.53,0.1
NO,0,2,137,144,89,2.75,0
YES,1,0,163,126,86,3.4,0.2
YES,1,0,119,114,104,3.01,0.2
YES,0,2,113,125,85,3.56,0
YES,0,0,113,104,83,3.23,0.3
NO,1,0,165,131,111,3.18,0.3
YES,0,0,166,119,111,3.97,0.1
YES,1,1,122,112,90,3.23,0
NO,1,0,158,154,88,3.32,0.2
YES,1,1,118,104,93,3.41,0.2
NO,1,0,109,145,105,2.57,0.2
YES,1,2,130,146,113,3.45,0.2
YES,0,1,103,167,85,3.53,0
YES,1,1,168,133,102,3.9,0.1
NO,0,2,159,111,91,2.82,0.3
YES,0,0,131,118,113,3.87,0.3
NO,0,1,167,142,89,3.37,0.3
YES,0,2,141,154,99,3.83,0.2
YES,0,1,159,128,113,2.5,0.3
YES,1,0,143,141,90,3.4,0
YES,1,0,169,157,113,3.73,0.1
NO,1,0,111,131,116,3.14,0.3
NO,1,0,160,159,113,3.11,0.3
YES,1,1,147,154,84,2.65,0.3
YES,1,0,154,115,119,2.66,0
YES,1,2,126,134,99,3.52,0.1
YES,0,0,149,121,110,3.78,0.1
YES,0,2,137,122,91,3.86,0.2
NO,1,1,164,129,82,2.68,0.2
NO,0,2,136,110,104,3.38,0.3
YES,1,2,149,158,92,2.74,0
NO,1,2,148,132,106,3.54,0.2
YES,0,1,148,169,96,3.41,0.2
NO,0,1,165,163,104,3.03,0.3
NO,1,0,134,140,85,3.19,0.2
NO,1,2,101,148,84,3.05,0.3
NO,1,2,128,112,92,3.11,0.1
YES,0,1,116,133,107,3.23,0.1
NO,1,1,127,164,95,2.85,0.1
NO,0,1,102,152,89,3.83,0
YES,1,2,153,150,84,2.57,0.3
NO,0,0,122,137,81,2.69,0.1
YES,0,0,109,124,115,3.07,0.3
YES,0,1,150,102,84,3.73,0.3
YES,1,0,115,107,104,2.65,0.1
YES,0,0,123,131,107,2.98,0.3
NO,1,1,148,122,91,4,0.1
NO,0,1,123,128,82,3.3,0.2
NO,0,0,139,103,105,2.59,0
NO,0,1,156,160,82,2.53,0.3
YES,1,1,115,115,98,2.88,0.3
YES,1,0,101,155,82,3.81,0.1
YES,1,1,108,168,120,3.56,0.2
NO,0,2,105,104,90,3.96,0.3
NO,1,0,170,153,111,3.77,0
YES,1,2,131,158,116,3.49,0.3
NO,1,2,141,130,116,3.76,0.3
NO,0,2,121,139,98,3.89,0.2
NO,1,2,141,142,99,3.11,0
YES,0,1,108,117,114,3.59,0.1
YES,1,2,156,100,101,3.93,0.2
YES,1,2,125,140,97,2.95,0.2
NO,0,1,143,100,98,2.97,0.3
NO,0,0,116,121,119,3.95,0.3
NO,0,2,116,113,113,3.8,0
NO,1,2,169,147,101,3.22,0.3
NO,0,1,166,129,85,3.51,0.2
NO,1,2,161,168,103,3.39,0
NO,1,0,123,152,93,2.85,0.1
YES,1,1,162,167,81,3.17,0
YES,0,1,141,160,104,3.84,0.3
NO,0,1,147,105,110,3.12,0
YES,1,2,119,131,105,3.38,0.3
YES,0,1,157,121,103,3.04,0
NO,1,0,142,104,116,4,0.3
NO,1,1,133,101,86,3.93,0
NO,1,2,127,124,108,2.79,0.3
NO,0,0,158,128,100,3.49,0.3
NO,1,0,130,152,110,3.48,0.2
NO,1,2,160,145,113,2.56,0.1
YES,1,1,143,150,96,3.55,0.2
NO,0,2,107,161,106,2.65,0.3
NO,1,1,100,166,106,2.73,0.3
YES,0,2,105,133,103,2.56,0.2
NO,0,2,100,112,87,3.93,0.3
NO,1,1,124,170,85,2.74,0.2
YES,1,1,126,152,120,3.81,0.3
YES,1,0,126,164,91,2.63,0
YES,1,1,124,129,115,3.74,0.3
YES,1,2,108,153,95,3.48,0
YES,0,0,142,148,80,3.58,0.1
NO,0,0,158,158,80,2.99,0
YES,0,2,103,148,112,3.41,0.3
YES,1,0,114,120,83,2.69,0.2
NO,0,0,169,110,111,3.36,0.3
NO,0,0,136,167,92,3.82,0.2
NO,1,2,100,152,86,3.01,0.1
NO,1,1,115,148,116,2.57,0.1
YES,0,0,165,160,107,3.74,0.3
NO,0,1,126,170,113,3.1,0.2
YES,1,0,136,157,81,3.91,0.3
YES,1,1,102,103,112,3.17,0.3
YES,0,2,151,122,81,3.99,0.3
NO,1,1,107,150,90,3.29,0.3
YES,0,2,109,114,104,2.56,0.1
YES,0,0,103,133,91,3.86,0.1
NO,1,0,113,104,95,3.15,0
NO,1,2,141,106,117,2.63,0.1
YES,0,2,157,101,81,3.53,0.1
YES,0,0,140,147,109,3.37,0
YES,1,2,160,117,84,2.9,0.3
NO,1,2,108,124,91,3.53,0.3
NO,0,0,131,164,93,3.42,0.2
YES,1,1,126,150,107,2.55,0.3
NO,1,0,153,156,119,2.97,0.1
NO,0,1,145,151,100,2.69,0.1
YES,1,1,162,169,82,2.99,0
YES,1,0,109,100,116,3.45,0.1
YES,1,0,162,136,109,3.23,0.2
YES,1,1,102,161,92,2.84,0.1
NO,0,2,143,122,105,3.36,0.1
YES,1,0,115,133,119,3.16,0.2
NO,0,1,110,138,114,3.9,0.1
NO,0,1,101,160,96,3.38,0
YES,1,1,145,149,99,3.46,0.1
YES,0,1,132,115,115,3.36,0.3
NO,1,2,130,137,110,2.93,0.1
NO,1,1,132,136,89,3.3,0.3
YES,1,0,141,161,88,3.69,0.1
NO,0,1,116,111,109,2.84,0.3
NO,1,1,168,109,91,2.85,0.2
YES,1,0,161,123,118,3.9,0.1
NO,1,0,110,162,117,2.55,0.2
YES,0,1,119,152,95,3.79,0
NO,1,2,114,158,86,3.08,0.3
NO,0,1,108,157,104,3.29,0
YES,0,2,117,158,97,3.89,0.3
YES,1,1,119,103,101,3.57,0.3
NO,1,0,127,109,111,2.78,0.1
NO,1,0,166,119,103,3.07,0.3
NO,1,2,135,110,92,2.86,0.3
YES,0,0,144,152,84,2.54,0
YES,0,1,129,119,81,3.57,0.3
YES,1,0,132,132,88,3.65,0.1
YES,0,2,119,136,90,2.88,0
NO,0,0,141,108,89,3.89,0.1
YES,0,0,144,132,120,3.49,0.1
YES,1,1,162,148,97,2.52,0.3
YES,0,0,147,150,95,2.61,0.3
YES,1,0,112,139,85,2.6,0.2
NO,1,0,167,118,82,3.76,0.1
NO,1,1,100,152,90,3.55,0
YES,0,2,119,153,99,3.24,0.2
NO,1,2,154,112,110,3.45,0.3
YES,1,1,142,111,86,3.17,0.2
YES,1,1,160,168,87,3.24,0.2
YES,1,2,150,112,83,2.8,0.3
YES,0,2,130,167,103,2.95,0.1
NO,0,1,151,156,87,2.67,0.2
YES,1,0,149,121,98,3.85,0
NO,1,0,110,112,87,2.87,0
YES,1,1,101,168,106,2.56,0.2
YES,0,2,148,126,83,3.66,0.3
NO,0,1,166,158,106,3.6,0.1
NO,1,1,100,129,87,2.79,0
NO,1,1,145,150,96,3.84,0.3
YES,0,0,149,149,90,2.54,0.1
YES,1,0,137,147,86,3.55,0
NO,1,1,160,143,112,2.74,0.2
YES,1,0,117,164,115,3.23,0.2
NO,1,0,118,146,113,3.32,0.3
NO,0,1,104,105,115,3.81,0.2
NO,0,1,112,122,89,2.77,0
YES,1,1,102,160,100,3.01,0.2
YES,0,2,169,148,110,2.61,0.1
YES,1,2,112,155,114,3.05,0.2
YES,0,1,131,122,89,3.07,0
NO,1,1,123,156,110,3.56,0.3
NO,0,2,104,115,86,2.81,0.3
YES,1,1,132,115,87,3.28,0
YES,0,0,154,146,103,2.52,0.3
YES,0,1,123,155,90,3.65,0.1
NO,0,2,110,126,115,3.49,0.1
NO,1,1,126,100,81,4,0.3
NO,1,2,133,159,107,2.7,0.1
NO,1,0,121,119,117,2.87,0.3
YES,0,2,161,146,80,2.55,0.2
NO,0,2,139,119,97,3.57,0.3
NO,0,1,117,168,108,2.89,0
NO,1,1,145,118,86,3.53,0.3
YES,1,1,127,138,91,2.87,0
NO,1,1,115,170,81,3.87,0
YES,1,0,129,160,117,3.03,0.2
NO,1,2,159,115,109,3.84,0.3
NO,0,2,126,131,118,3.47,0.1
YES,0,0,135,146,90,3.8,0.2
YES,1,0,128,125,87,3.3,0
NO,1,0,151,151,102,3.17,0.1
YES,1,0,164,117,86,2.5,0.3
YES,1,1,141,120,105,3.25,0.2
NO,1,0,122,110,118,3.48,0
YES,1,1,138,107,107,3.47,0.2
NO,0,2,146,119,82,3.59,0.2
NO,0,1,148,112,83,3.12,0.2
NO,1,2,146,122,108,3.27,0
YES,1,2,133,159,111,3.24,0.1
NO,1,1,164,149,92,3.78,0
YES,0,0,148,142,88,3.06,0.3
NO,0,0,120,105,93,3.7,0.3
NO,1,2,107,114,105,3.78,0.1
NO,1,0,103,161,108,3.59,0.2
NO,1,1,153,136,84,3.53,0.1
YES,0,0,163,109,118,3.04,0.1
YES,0,2,130,101,100,3.89,0.3
NO,0,0,120,135,106,3.03,0.2
YES,0,1,121,152,118,3.61,0
NO,1,1,109,130,96,3.54,0
NO,1,1,117,149,111,3.83,0.2
NO,1,2,100,110,111,3.64,0.3
YES,0,2,141,125,86,3.72,0.3
YES,1,1,107,125,112,3.76,0.3
YES,0,2,153,170,119,2.6,0.2
YES,1,2,133,153,118,2.84,0.2
YES,0,2,109,112,91,2.81,0.1
NO,0,2,132,150,93,2.88,0
YES,0,1,160,117,96,2.83,0
NO,0,1,146,140,84,3.93,0
NO,1,1,117,139,96,2.78,0.2
NO,0,1,163,135,92,3.55,0.1
YES,0,2,160,108,106,3.14,0.2
YES,1,0,147,102,110,3.29,0
YES,1,1,112,127,115,3.78,0.1
NO,1,0,168,101,97,2.62,0
YES,1,2,149,122,82,3.7,0.2
YES,0,1,103,116,91,3.49,0
YES,1,0,153,133,83,3.71,0.2
YES,0,1,113,115,111,2.52,0
NO,0,1,153,162,112,3.96,0.3
NO,0,2,100,157,112,2.51,0.1
YES,0,0,157,158,118,3.36,0.2
NO,0,2,139,169,107,3.17,0.2
NO,0,2,153,100,111,3.95,0
YES,1,0,143,136,96,3.01,0.1
YES,0,0,114,113,114,3.51,0
YES,0,0,128,165,86,3.89,0.1
YES,1,0,132,129,107,3.01,0.3
YES,1,1,136,124,80,2.57,0.3
YES,0,2,156,122,83,3.27,0
YES,1,2,164,106,120,2.53,0.1
YES,1,2,154,165,109,3.25,0.3
NO,1,1,111,129,103,3.99,0.2
NO,1,2,158,145,85,2.8,0.1
NO,1,0,125,134,87,3.91,0.2
NO,1,2,124,134,100,3.24,0
NO,0,1,156,151,108,2.99,0.2
YES,1,2,118,124,103,3.91,0.1
YES,0,2,153,103,95,3.62,0.2
NO,0,1,133,147,96,3.87,0.1
NO,0,1,115,138,104,2.66,0.2
NO,0,2,154,163,104,2.89,0
NO,0,0,138,137,86,2.65,0.1
YES,0,1,142,154,86,3.59,0.2
NO,1,0,134,109,84,3.78,0
NO,1,1,118,156,84,3.83,0
NO,1,2,162,112,86,2.57,0
YES,1,0,162,131,112,3.81,0
YES,0,2,146,168,117,3.81,0.3
NO,1,1,145,151,92,3.3,0
YES,0,1,127,137,83,3.48,0.3
NO,1,1,166,134,107,3.98,0
YES,0,2,149,119,110,3.95,0.2
NO,0,0,160,141,108,3.89,0.3
YES,1,1,140,121,85,2.56,0
NO,0,2,133,108,88,3.72,0
YES,1,1,120,145,92,3.09,0.3
NO,0,2,113,124,105,2.74,0.2
YES,0,1,113,162,104,3.51,0
YES,0,0,157,137,103,3.41,0.1
NO,1,1,149,156,116,3.37,0.1
YES,0,2,148,103,109,2.98,0.2
NO,1,0,140,120,89,3.1,0
NO,0,0,151,155,82,3.22,0
YES,1,2,128,115,117,2.79,0.2
YES,1,1,118,136,86,2.66,0.3
NO,1,0,149,146,105,2.86,0
YES,1,0,158,153,91,2.95,0
NO,1,1,151,106,105,3.15,0.1
YES,0,1,137,157,105,3.44,0.3
NO,1,2,163,120,96,3.54,0.3
YES,0,2,134,122,92,3.58,0.2
NO,1,0,158,100,84,3.76,0.2
NO,0,0,159,119,98,2.97,0.2
YES,1,2,139,122,106,2.79,0
YES,1,0,145,120,116,3.74,0.3
YES,1,1,157,116,114,3.01,0
NO,0,1,144,137,113,3.89,0.3
YES,1,2,141,153,90,2.93,0
NO,1,2,126,138,108,2.74,0.2
YES,0,2,149,115,108,3.99,0.1
YES,1,2,137,116,113,3.61,0.1
YES,1,1,157,125,80,2.56,0
NO,1,0,129,136,90,3.33,0.1
NO,0,2,151,146,108,3.68,0.3
YES,1,0,126,168,80,2.67,0
YES,1,2,169,150,114,2.97,0
NO,0,1,170,131,84,3.9,0.2
YES,0,1,116,129,114,2.66,0.1
YES,1,0,156,108,108,2.57,0.1
YES,1,2,165,123,92,2.51,0.1
NO,0,0,170,105,114,3.93,0.1
YES,0,1,110,169,115,3.31,0.3
YES,1,2,107,133,90,2.92,0.2
YES,1,1,126,120,86,3.05,0.2
YES,1,1,115,123,108,3.56,0.1
YES,0,0,142,123,114,3.06,0.1
NO,0,2,121,133,109,2.52,0.2
YES,1,2,159,106,106,3.32,0.2
NO,1,2,168,163,90,3.98,0.1
NO,0,2,155,151,92,3.75,0.1
NO,1,0,136,158,118,2.77,0.1
NO,0,1,101,137,110,3.69,0.3
NO,1,0,134,136,92,2.62,0.3
NO,1,1,113,159,103,3.68,0.1
NO,1,0,155,161,90,2.83,0.2
YES,0,2,128,159,93,3.49,0.3
NO,1,0,143,113,106,2.77,0.1
YES,0,0,156,105,86,3.43,0.3
YES,1,1,120,162,89,2.93,0
YES,0,2,109,115,100,3.53,0.2
NO,1,1,117,117,105,2.55,0.1
YES,1,1,128,150,103,3.8,0
YES,0,2,115,102,82,3.69,0
YES,0,2,160,143,112,3.34,0.1
NO,1,2,155,150,83,2.85,0.3
YES,1,0,139,155,91,3.98,0.3
YES,0,0,162,155,86,2.98,0.1
NO,0,2,162,149,89,2.96,0.1
YES,1,0,104,127,81,3,0.2
NO,0,1,117,144,97,3.34,0.1
NO,0,0,146,160,94,3.51,0.2
NO,0,0,134,106,112,2.52,0
YES,0,1,158,117,97,2.54,0
YES,1,1,154,102,103,3.47,0.1
NO,1,0,101,153,98,2.62,0.3
YES,0,1,146,161,86,3.95,0
NO,1,0,103,135,92,3.68,0
NO,1,0,125,149,99,2.56,0.2
NO,0,1,105,154,80,3.04,0.2
NO,0,1,155,139,105,2.95,0
YES,1,1,108,113,83,3.56,0.1
YES,1,1,148,163,90,3.08,0.3
NO,1,0,148,164,111,3.91,0.2
YES,1,1,118,111,108,3.12,0
NO,0,2,139,142,100,2.82,0.3
NO,1,1,165,132,107,2.65,0
YES,0,2,150,158,80,2.82,0.3
YES,0,2,168,121,86,3.03,0.1
YES,0,1,103,144,119,3.15,0.2
NO,0,1,132,141,119,3.34,0.3
NO,1,0,157,164,83,3.68,0.1
YES,0,2,109,140,120,3.98,0.3
NO,0,0,160,138,86,3.24,0.1
NO,0,2,127,100,105,2.63,0.2
YES,0,1,158,114,88,3.33,0.3
NO,0,0,106,126,104,3,0.3
NO,1,0,138,162,106,3.69,0
YES,1,2,100,160,109,3.62,0
NO,0,0,132,104,87,2.56,0.2
YES,0,1,162,170,91,3.89,0.1
NO,0,0,141,154,115,3.98,0
NO,0,0,111,106,109,2.62,0
NO,1,1,100,152,86,3.92,0.2
YES,0,1,118,134,102,2.98,0.2
NO,0,2,100,164,85,3.73,0.3
YES,1,2,124,157,102,3.99,0
NO,0,0,126,102,106,3.68,0.1
NO,0,1,151,107,113,2.54,0.3
YES,0,1,121,156,99,2.75,0.2
YES,1,2,161,111,90,3.1,0
NO,0,1,121,108,85,3.36,0.1
NO,1,1,158,156,92,2.77,0.3
YES,1,2,106,146,94,3.4,0
YES,0,0,164,166,105,3.16,0.1
NO,1,2,129,150,106,2.52,0.1
NO,1,0,167,113,105,3.65,0.2
NO,0,2,142,139,114,3.43,0.2
NO,0,1,147,154,84,3.25,0.2
YES,1,0,114,118,99,3.01,0.1
YES,1,1,107,154,120,3.33,0.3
NO,1,0,151,152,85,3.62,0.2
YES,0,1,143,145,83,3.07,0.2
NO,1,1,101,134,84,2.5,0.2
YES,0,0,114,167,113,2.54,0
NO,0,2,138,133,110,2.54,0.2
NO,0,2,107,111,96,3.06,0.3
NO,1,0,118,154,83,4,0.1
NO,0,2,130,165,102,3.13,0.2
YES,0,1,134,143,90,3.38,0
NO,1,0,156,102,114,3.68,0.2
NO,0,2,101,100,87,3.21,0.1
YES,0,1,130,107,106,3.9,0
YES,1,2,130,170,87,2.63,0.3
NO,1,0,111,128,91,3.46,0.2
NO,0,2,111,165,85,3.87,0.2
YES,1,0,138,157,80,2.68,0
YES,0,1,158,120,82,3.73,0.1
NO,0,2,169,152,86,2.72,0
NO,0,2,102,113,94,3.6,0.1
NO,0,0,133,115,90,2.59,0
NO,0,0,160,135,114,3.49,0.1
NO,0,0,128,120,102,3.8,0.3
NO,0,1,120,117,92,2.91,0.1
YES,1,1,137,108,91,3.32,0.1
NO,0,0,118,105,106,3.34,0.3
YES,0,2,121,113,86,3.01,0.3
YES,0,0,118,127,112,3.12,0.2
NO,1,2,137,168,84,3.34,0.2
NO,0,0,130,124,106,2.76,0.1
YES,1,0,160,134,110,3.13,0.2
NO,0,0,163,148,112,3.27,0
YES,0,2,123,113,86,3.29,0
NO,1,0,162,136,113,3.77,0.1
NO,0,1,119,125,83,2.91,0.2
NO,1,0,110,113,83,3.84,0.1
NO,0,0,103,135,104,3.61,0.1
NO,1,0,130,152,107,3.85,0
NO,1,0,153,104,104,3.61,0.2
NO,1,0,149,147,101,3.83,0.1
NO,0,2,144,144,103,3.75,0.3
YES,1,1,160,136,98,3.02,0.1
NO,1,1,142,152,85,3.76,0.3
NO,0,1,169,117,97,2.68,0.3
NO,0,1,134,168,110,2.91,0
YES,0,1,133,121,80,3.97,0.3
NO,0,1,105,145,115,2.89,0.3
NO,1,2,149,160,118,3.93,0.1
NO,0,1,156,109,87,3.08,0.1
NO,0,0,161,169,86,2.93,0
NO,0,1,107,104,106,3.2,0
NO,0,0,101,125,81,2.89,0.2
YES,0,2,164,131,83,2.51,0.2
NO,1,0,127,151,111,2.59,0.3
YES,1,0,125,106,87,3.73,0
YES,1,1,147,106,119,2.51,0.2
NO,0,1,100,147,105,2.54,0.3
NO,1,0,121,169,103,2.92,0.2
YES,1,2,110,129,116,3.32,0
NO,0,2,121,133,105,3.49,0.3
NO,1,0,107,120,94,3.64,0
YES,1,2,164,153,109,3.89,0.3
NO,1,1,139,157,92,3.8,0.2
YES,0,2,169,108,111,3.53,0.3
NO,0,0,143,162,104,2.75,0.1
NO,0,1,129,167,87,3.71,0.1
NO,1,1,120,110,119,3.2,0.3
YES,1,0,133,166,97,2.56,0.1
YES,1,0,156,146,82,3.49,0.1
YES,1,0,157,119,98,2.68,0.2
YES,0,2,145,112,109,3.59,0
YES,0,2,119,150,118,2.59,0.3
YES,1,1,131,151,85,3.63,0
YES,1,1,158,167,83,2.6,0.3
YES,0,1,159,104,89,3.94,0
NO,1,0,102,120,112,3.54,0.3
NO,0,1,159,109,87,3.37,0.2
NO,1,0,161,115,108,3.21,0.2
NO,0,0,138,118,89,2.99,0
NO,1,1,158,141,108,3.6,0.3
NO,0,2,147,160,106,3.12,0.1
YES,1,1,163,153,93,3.74,0.1
YES,0,0,117,114,109,3.26,0.1
YES,1,1,158,157,109,3.06,0.3
YES,1,1,115,143,89,3.07,0
YES,1,0,113,129,86,3.21,0.3
YES,0,2,106,120,111,2.6,0
NO,0,1,113,139,110,3.65,0.2
YES,0,1,135,104,111,3.89,0.2
YES,1,2,139,163,85,2.69,0.1
YES,1,1,113,140,81,2.66,0.2
NO,1,2,119,133,105,3.21,0.3
NO,1,1,132,112,106,2.63,0.2
YES,1,0,138,115,105,3.31,0.2
NO,1,0,102,119,116,2.56,0.3
YES,1,2,150,132,105,2.91,0.1
YES,0,1,118,111,95,3.2,0.2
YES,1,0,139,130,113,2.94,0.3
YES,1,0,141,161,84,3.15,0.2
NO,0,1,104,131,86,3.18,0
YES,0,2,107,110,116,3.75,0.1
YES,0,2,104,122,96,3.5,0.1
NO,0,2,132,123,85,2.53,0.1
NO,0,0,143,154,114,2.75,0
YES,0,1,151,156,115,3.65,0.2
NO,1,2,149,124,95,3.45,0.2
NO,1,2,116,117,90,3.31,0.1
NO,0,0,151,107,114,3.45,0
NO,1,1,126,123,112,2.73,0
YES,1,1,120,121,110,3.02,0
YES,1,0,126,163,83,3.24,0.2
YES,0,0,154,101,119,3.94,0.1
NO,0,2,164,139,93,3.19,0
NO,0,0,117,140,108,2.71,0.3
YES,1,0,116,154,92,3.11,0.2
YES,0,2,136,154,113,2.59,0.3
YES,1,2,158,129,93,2.73,0.3
NO,1,1,132,134,117,3.55,0.3
NO,0,2,153,151,105,3.39,0.2
YES,0,0,107,114,92,3.86,0
YES,0,1,139,134,106,2.6,0.1
YES,0,1,137,142,101,3.45,0
NO,1,2,142,169,107,3.45,0.3
YES,1,2,146,126,84,3.38,0.3
YES,1,1,134,115,115,3.64,0.3
YES,1,2,142,143,95,2.57,0
YES,1,0,167,107,91,3.93,0
YES,0,1,109,156,83,3.97,0.2
YES,0,2,101,151,97,2.8,0
NO,1,0,164,140,118,2.73,0
YES,1,1,155,147,87,3.57,0.3
NO,1,0,112,164,88,2.58,0.3
YES,1,1,132,161,108,3.75,0
YES,1,2,136,151,87,2.91,0.2
NO,0,0,146,129,93,2.59,0
NO,1,0,138,114,109,3.85,0.2
NO,1,0,119,164,106,2.61,0.1
YES,0,2,155,135,112,2.69,0.3
NO,1,2,152,134,109,2.96,0.1
NO,0,1,126,130,114,2.51,0
YES,1,1,124,165,84,2.78,0.1
YES,0,2,121,107,93,2.61,0.1
NO,0,1,158,137,115,3.03,0
NO,0,1,165,142,89,3.08,0.3
YES,1,0,164,136,109,3.52,0.2
YES,1,1,115,114,93,2.51,0.1
YES,0,1,108,120,86,3.34,0.1
NO,1,0,130,101,88,3.96,0.2
YES,1,0,107,100,89,3.09,0.1
YES,1,0,141,135,110,2.65,0.2
YES,1,2,166,138,116,3.19,0.1
NO,1,1,113,164,88,3.18,0.1
NO,1,2,115,149,83,2.56,0.2
YES,0,0,148,133,82,2.91,0
YES,1,1,119,127,87,3.27,0
NO,0,0,170,148,85,2.76,0.3
YES,1,2,166,130,106,2.51,0.2
YES,1,1,137,137,116,3.95,0.3
NO,0,1,169,168,91,3.63,0
YES,0,1,167,141,84,3,0.1
YES,1,2,118,166,107,2.75,0.3
YES,1,1,137,159,110,3.81,0.2
YES,0,1,104,153,84,3.58,0.1
NO,0,0,160,134,97,3.2,0.1
NO,1,2,103,151,96,3.08,0
NO,1,2,137,124,96,2.71,0.1
YES,1,0,158,108,107,2.86,0.1
NO,1,0,118,106,114,2.72,0.1
YES,1,0,162,134,96,3.48,0.2
NO,1,2,129,102,96,2.75,0.1
NO,1,2,107,136,103,2.67,0.2
NO,1,2,113,144,98,2.77,0.1
NO,1,0,123,120,84,2.54,0.1
NO,1,2,129,169,91,3.16,0.2
NO,1,2,166,164,87,2.56,0.3
NO,1,0,116,147,119,3.39,0.1
NO,1,1,146,118,119,3.23,0
YES,0,2,170,100,116,3,0.3
YES,1,2,143,159,83,3.61,0.3
YES,0,2,121,165,114,3.8,0.3
YES,0,2,113,120,83,3.6,0.3
NO,0,1,101,137,106,3.15,0
NO,1,1,149,113,88,3.48,0
NO,0,2,143,103,104,3.16,0.1
YES,0,2,169,152,90,3.26,0.3
NO,0,2,159,133,85,3.59,0.3
NO,0,1,119,122,90,3.84,0.3
YES,0,2,157,105,98,3.64,0
NO,0,2,143,101,90,3.41,0.1
NO,0,1,147,129,105,3.71,0.3
NO,1,2,153,148,92,3.64,0.1
YES,0,2,134,124,117,3.25,0.3
NO,0,1,149,107,82,3.15,0.1
NO,1,0,161,118,80,2.96,0.3
NO,0,2,141,150,106,3.25,0.3
YES,1,0,117,121,107,2.51,0.2
YES,1,1,142,106,101,2.76,0
YES,1,0,117,138,104,3.86,0
NO,0,2,136,149,111,2.62,0.2
NO,1,1,149,115,92,3.84,0.3
YES,1,1,119,146,88,3.47,0.1
YES,1,2,150,152,114,2.5,0.3
YES,0,0,120,149,93,2.74,0.1
YES,0,0,103,119,100,3.61,0.2
NO,0,2,128,107,106,3.61,0
NO,1,0,140,141,107,3.58,0.3
YES,1,2,162,150,97,3.86,0.2
YES,0,1,113,134,112,2.71,0
YES,0,0,114,122,88,3.05,0.1
YES,0,0,149,151,90,3.87,0.1
NO,0,0,120,108,114,2.83,0.1
NO,0,1,105,102,94,3.16,0.3
NO,0,2,136,112,109,3.74,0.2
YES,1,1,129,115,92,3.53,0.3
YES,1,0,144,120,120,2.77,0.3
YES,1,0,119,120,102,3.94,0
NO,1,1,135,133,111,2.56,0
NO,1,0,159,121,102,3.33,0.1
YES,1,1,153,119,112,3.55,0.2
NO,0,0,161,123,106,3.97,0
NO,0,2,145,154,85,2.96,0.2
YES,0,1,128,150,90,3.88,0.3
NO,1,1,118,131,89,3.23,0.1
YES,1,0,152,141,107,2.81,0.1
YES,1,2,157,159,89,3.29,0.3
NO,1,2,158,147,102,3.09,0
YES,0,0,100,147,101,2.91,0.1
NO,1,2,127,125,112,3.15,0.2
YES,0,0,131,137,85,3.08,0.3
YES,1,1,121,151,85,3.77,0.2
NO,1,0,100,139,107,3.29,0.2
YES,1,2,103,150,100,3.62,0
YES,1,0,137,152,83,2.97,0.1
NO,1,0,136,115,105,3.03,0.2
YES,0,0,111,123,106,3.96,0.1
NO,1,1,111,112,90,3.09,0.1
YES,0,2,122,101,115,3.87,0
NO,1,2,101,142,91,2.65,0.1
YES,0,1,111,139,110,3.36,0.1
NO,0,0,116,105,119,2.98,0
YES,1,0,148,107,98,3.62,0.1
NO,1,0,129,128,112,3.26,0.1
YES,1,0,104,102,106,3.09,0
YES,0,1,111,157,115,3.18,0
NO,0,1,156,112,113,2.76,0.3
YES,0,2,121,158,83,3.02,0.3
YES,0,1,131,148,92,3.05,0.1
NO,1,0,122,162,88,3.21,0.1
YES,1,0,151,110,106,3.11,0.2
NO,1,0,123,127,98,3.76,0.2
NO,0,2,115,129,89,2.52,0.3
YES,1,1,122,117,91,3.79,0
YES,0,0,161,103,84,3.87,0.2
NO,0,1,122,142,98,2.8,0
YES,1,1,132,161,112,3.37,0.2
YES,1,2,116,113,109,2.66,0.2
NO,1,1,111,132,112,3.2,0.3
NO,0,2,165,121,91,3.28,0
NO,1,2,117,159,81,2.83,0
NO,1,1,103,116,119,3.56,0.3
YES,0,0,100,165,81,3.2,0.3
NO,0,1,156,161,103,3.35,0.1
NO,1,2,111,144,96,2.86,0.2
YES,1,0,113,139,114,2.67,0.1
YES,0,2,147,133,114,2.93,0
YES,1,1,121,134,117,3.42,0
YES,1,2,161,123,115,2.76,0.3
YES,1,0,155,158,90,3,0.2
NO,0,1,127,168,84,2.89,0.1
YES,1,1,130,117,92,3.36,0.2
NO,1,0,140,164,97,3.81,0
YES,0,0,147,121,115,2.52,0
YES,0,0,110,157,91,3.05,0.1
YES,0,1,142,157,111,3.26,0
YES,1,0,152,143,83,3.09,0.1
YES,0,0,152,115,120,3.88,0
NO,1,0,138,122,119,3.03,0
NO,0,2,106,142,105,3.37,0
NO,1,2,165,125,118,3.7,0.2
NO,1,2,106,147,90,2.87,0
NO,1,1,153,120,108,3.01,0.3
YES,0,1,153,115,82,3.51,0.2
NO,0,2,161,110,82,3.71,0.2
YES,0,0,122,155,115,3.5,0.3
YES,0,2,120,146,113,3.6,0.3
YES,1,1,136,163,111,3.77,0.3
YES,0,0,167,111,117,3.43,0.1
NO,1,0,135,170,85,2.88,0.1
YES,0,1,149,156,87,3.89,0.1
NO,1,0,167,162,111,2.88,0.2
NO,0,1,106,109,104,2.62,0.2
YES,1,0,130,167,90,3.03,0
YES,0,1,142,124,106,3.49,0.3
NO,1,1,105,124,88,3.02,0.2
NO,1,1,139,119,110,3.5,0
YES,0,1,103,122,84,3.89,0.3
YES,0,0,161,148,81,3.88,0.1
NO,0,1,156,111,117,3.3,0.2
YES,0,1,155,120,108,3.29,0.3
NO,1,2,166,107,116,3.78,0.2
NO,0,2,148,127,117,3.5,0.2
NO,1,1,149,135,98,2.89,0.2
YES,0,0,134,153,105,3.51,0
YES,1,2,120,122,118,3.01,0
YES,1,0,129,162,93,3.32,0.2
YES,0,0,157,135,86,3.13,0.1
NO,0,1,126,150,91,3.59,0.3
NO,1,2,130,138,94,3.38,0.2
YES,1,2,113,120,96,3.53,0
NO,1,2,102,159,116,3.16,0
NO,1,2,126,163,87,3.78,0.1
NO,1,2,163,137,93,3.37,0.1
YES,0,2,152,132,104,3.2,0.2
NO,0,1,101,131,112,2.75,0.2
YES,1,2,156,147,99,3.18,0.2
YES,0,2,149,148,94,3.07,0
NO,0,2,156,137,87,3.27,0.3
YES,1,1,104,156,110,3.25,0.3
NO,0,1,151,141,95,2.6,0
YES,0,0,135,152,84,2.69,0.1
NO,0,0,110,155,115,2.76,0.1
NO,1,2,167,124,112,2.71,0.3
YES,0,0,130,133,93,3.73,0.3
NO,0,2,155,146,94,2.82,0.3
YES,0,2,159,135,102,3.87,0.2
NO,1,2,101,100,115,3.28,0
YES,1,2,121,160,88,3.39,0.1
YES,0,1,152,157,83,3.64,0.2
YES,0,2,103,169,98,3.28,0
YES,0,0,155,142,102,2.56,0.2
YES,0,2,151,149,89,2.82,0.2
NO,1,0,127,162,103,3.93,0.3
YES,0,0,102,145,99,3.97,0.1
YES,0,2,164,132,120,3.48,0.2
YES,1,2,155,156,118,3.25,0.2
YES,0,2,139,124,91,3.97,0.2
NO,0,2,170,117,84,3.35,0.1
YES,0,0,156,119,99,3.59,0.3
YES,0,0,169,111,107,2.82,0
YES,1,2,107,108,111,3.38,0.2
YES,0,2,114,155,85,3.26,0.3
YES,0,2,143,129,94,3.22,0.1
YES,0,2,165,121,87,3.66,0.2
YES,1,1,134,161,111,3.66,0.3
YES,1,1,142,158,116,3.63,0.2
YES,1,2,155,124,113,3.48,0.1
YES,0,1,132,109,113,3.57,0.3
NO,0,2,163,161,87,3.96,0.3
NO,0,2,112,112,115,2.63,0.1
NO,0,1,165,163,108,3.56,0.3
NO,0,0,151,109,102,2.75,0
YES,1,1,101,144,120,2.86,0.2
NO,1,1,170,115,96,3.45,0.2
NO,0,1,151,165,90,3.19,0.2
NO,1,2,119,130,84,2.56,0
NO,1,2,108,122,115,3.24,0.3
NO,1,1,162,151,118,3.17,0.1
YES,0,0,152,162,84,3.29,0.1
YES,1,1,103,114,106,3.81,0.3
NO,0,1,149,105,110,3.4,0
NO,1,2,170,100,88,2.92,0
NO,1,1,167,138,100,3.33,0.3
YES,1,1,116,159,106,2.68,0.2
YES,1,0,129,163,98,3.68,0.1
NO,1,0,123,102,111,3.93,0
YES,1,1,159,108,119,3.98,0
NO,0,0,126,140,80,3.08,0.1
NO,1,0,103,115,111,3.58,0.2
NO,1,1,147,149,99,3.75,0.1
NO,1,0,136,138,96,3.26,0.2
NO,1,1,116,116,94,3.85,0
NO,0,2,142,116,83,3.2,0.2
NO,1,1,111,158,108,3.93,0.3
NO,1,1,119,124,115,3.52,0
NO,0,0,104,169,85,3.95,0.2
YES,0,1,115,135,91,2.91,0.2
NO,1,2,168,163,119,3.46,0.2
YES,0,0,143,114,111,3.13,0.3
YES,0,1,160,164,102,3.74,0.2
NO,0,1,135,127,105,3.75,0
YES,0,2,109,117,89,3.74,0.2
YES,0,2,109,144,96,2.58,0.2
YES,0,0,118,150,103,3.35,0.3
NO,0,0,153,155,110,3.58,0
YES,1,1,153,137,105,2.84,0
NO,1,1,128,154,112,3.02,0.1
NO,0,2,150,107,98,3.3,0.2
NO,0,2,133,137,84,3.36,0.3
NO,1,1,130,161,109,3.46,0
NO,0,0,120,102,120,3.95,0.2
YES,0,2,116,163,95,2.72,0.2
YES,1,1,170,116,88,3.29,0.1
YES,1,2,160,167,111,2.96,0.3
YES,0,1,133,103,116,2.63,0.1
YES,0,0,166,104,107,3.97,0.2
NO,1,0,159,117,113,3.29,0.1
YES,0,0,112,113,82,2.62,0.1
YES,1,0,107,166,91,3.66,0.3
YES,1,2,102,158,111,2.79,0.2
YES,1,1,139,115,117,2.93,0.1
YES,1,2,125,118,82,3,0.2
NO,1,1,141,139,90,3.89,0.3
NO,0,1,111,109,106,3.42,0
YES,0,0,115,160,102,3.97,0.1
YES,0,0,147,103,118,2.68,0.2
NO,0,2,145,129,106,3.43,0.2
NO,0,1,165,159,86,2.92,0
YES,0,1,104,131,90,3.72,0.3
NO,0,2,162,129,111,3.98,0.1
NO,1,0,157,162,94,3.47,0.1
YES,1,0,161,141,111,3.2,0.3
NO,1,1,147,156,117,3.08,0.1
YES,1,2,117,105,102,3.11,0.2
NO,1,0,151,155,111,3.29,0.3
NO,1,1,165,119,87,3.83,0.3
NO,0,2,107,160,114,3.73,0.1
YES,1,0,120,158,112,2.81,0.1
YES,1,0,137,129,89,3.71,0.2
YES,0,0,102,143,111,3.16,0.1
NO,1,2,124,147,111,2.66,0
NO,1,1,105,154,89,3.94,0
NO,0,1,153,137,92,2.92,0.3
YES,0,2,142,164,97,2.59,0
NO,1,0,159,136,86,3.41,0.2
YES,1,1,152,149,113,2.96,0
NO,1,2,158,148,98,3.46,0.2
YES,0,2,110,107,89,2.85,0
YES,0,2,130,145,96,3.17,0.2
NO,0,1,119,124,103,3.59,0.3
YES,0,1,162,101,108,2.67,0.1
NO,1,1,162,128,87,2.94,0.1
NO,0,2,109,142,104,2.74,0.3
NO,0,1,158,111,104,3.65,0.1
YES,1,0,133,116,99,3.49,0.1
YES,0,0,110,162,85,3.45,0
NO,0,0,137,102,110,2.84,0.3
NO,0,0,165,107,112,2.96,0.3
NO,0,1,166,153,109,2.67,0
NO,0,0,121,122,101,2.54,0
YES,1,2,158,144,118,2.81,0
YES,0,1,163,137,105,3.3,0.2
YES,0,0,110,109,94,3.81,0.1
YES,1,2,133,135,84,3.54,0
NO,0,2,122,154,82,3.06,0.2
NO,0,1,144,138,109,3.35,0
NO,1,1,108,115,84,3.38,0
YES,1,0,125,123,96,2.58,0.2
YES,1,1,101,139,82,3.44,0
YES,1,0,144,156,114,2.58,0
NO,1,2,138,115,89,3.16,0.1
YES,0,0,156,153,96,3.2,0.2
NO,0,1,142,131,120,3.21,0
NO,0,2,138,108,119,3.99,0.2
YES,0,0,156,105,82,2.9,0.3
YES,0,2,113,170,110,3.65,0.3
YES,1,1,159,131,113,3.84,0.2
NO,1,2,166,141,97,3.84,0.3
YES,0,1,148,141,104,3.21,0.1
YES,0,0,130,108,90,3.75,0.2
NO,0,1,104,113,94,3.89,0.2
NO,0,2,169,156,80,3.3,0.3
NO,0,2,151,125,103,3.12,0.1
YES,1,1,129,143,80,3.19,0.1
YES,0,1,162,116,87,3.72,0.3
NO,1,1,104,159,90,3.9,0.1
YES,0,1,125,115,102,3.86,0
NO,0,0,167,132,106,3.84,0.2
YES,0,2,166,161,119,3.35,0.2
NO,1,1,147,132,90,3.39,0
NO,0,0,143,156,90,3.04,0
YES,0,0,167,113,97,2.75,0
NO,0,2,111,123,110,2.99,0
NO,1,1,127,162,119,2.57,0.1
YES,1,1,135,125,101,3.39,0.2
NO,1,1,134,121,112,3.07,0.1
NO,0,0,129,110,107,2.52,0.2
NO,1,2,139,146,89,2.86,0.3
NO,1,0,119,165,114,2.6,0.2
NO,0,2,159,157,112,3.28,0.3
YES,0,0,129,157,92,3.35,0.1
YES,0,0,123,121,92,3.44,0.3
NO,0,1,119,101,112,3.36,0.3
NO,1,1,165,164,112,3.93,0.1
NO,1,2,123,142,82,3.85,0.3
NO,0,2,140,133,81,2.75,0.3
NO,0,2,101,103,87,3.03,0
NO,0,0,101,153,110,2.55,0
YES,1,0,150,109,98,3.13,0.2
YES,0,2,117,130,110,3.63,0.2
YES,1,0,155,105,99,3.36,0
YES,0,0,103,162,112,3.95,0
NO,0,0,127,104,85,3.28,0
YES,0,2,157,102,85,3.89,0
NO,1,1,133,126,110,4,0.3
NO,1,0,142,103,120,3.02,0.3
YES,1,1,119,123,94,2.7,0.1
YES,0,1,143,143,94,3.77,0.2
NO,0,0,100,142,107,2.51,0.2
NO,1,2,127,126,92,3.97,0.1
YES,0,0,118,158,113,2.53,0.1
NO,1,1,164,103,108,3.69,0.2
NO,1,2,109,114,91,2.63,0
YES,0,0,102,169,86,3.67,0.2
NO,1,0,119,136,118,2.96,0.3
YES,1,0,168,147,118,3.09,0.1
YES,0,1,155,100,110,2.72,0.1
YES,1,1,154,113,94,3.3,0.1
NO,1,1,141,115,107,3.82,0
YES,0,0,119,165,115,3.51,0.3
NO,0,1,141,138,110,3.98,0.1
NO,0,0,137,126,96,2.54,0
YES,0,2,127,118,102,3.97,0
YES,0,1,120,140,107,3.59,0.2
YES,1,0,138,145,109,3.26,0
NO,1,2,144,102,115,2.95,0
NO,0,1,148,143,93,3.42,0.2
YES,1,0,119,164,118,3.14,0.1
NO,1,0,151,154,115,3.83,0.2
NO,0,0,134,101,115,3.1,0.2
NO,0,1,144,140,85,3.64,0
NO,1,2,157,130,101,3.63,0.1
NO,0,2,165,121,100,2.67,0.2
NO,0,0,134,116,86,3.57,0
YES,1,1,161,131,112,2.61,0.3
NO,0,0,129,119,110,3.05,0.3
NO,1,0,124,108,113,3.4,0.2
NO,0,0,100,138,86,3.37,0
NO,1,0,169,117,113,3.14,0.3
NO,1,1,127,119,82,3.29,0.2
YES,1,2,115,127,85,3.67,0
NO,0,2,149,135,86,2.96,0
NO,1,2,154,142,115,3.39,0.1
YES,0,0,153,157,95,3.25,0.1
YES,1,1,105,141,85,2.86,0.3
YES,0,1,115,144,98,3.97,0.2
NO,0,0,121,147,109,3.06,0
YES,1,0,107,168,104,3.41,0
NO,0,0,115,132,111,3.17,0.1
NO,0,1,159,127,92,3.19,0
YES,0,2,120,167,90,2.57,0.3
NO,0,2,160,154,87,3.61,0.2
NO,1,1,132,142,86,2.73,0.1
NO,1,2,167,150,87,2.62,0
NO,0,1,138,100,109,3.3,0
YES,0,1,109,111,95,3.35,0
NO,0,0,131,119,109,3.33,0.3
YES,0,1,162,113,107,3.08,0.1
NO,1,1,135,151,112,2.76,0
NO,0,2,108,110,87,2.76,0
NO,1,1,129,117,117,3.21,0
YES,1,0,156,148,95,2.64,0.3
YES,0,1,125,138,92,2.59,0
YES,0,2,119,110,87,2.9,0.3
YES,1,2,138,136,94,3.72,0.3
YES,1,1,109,137,107,2.72,0.2
NO,1,2,109,117,117,3.82,0.1
NO,1,2,106,118,106,3.75,0.2
NO,1,1,155,137,92,3.2,0
NO,0,0,126,112,92,2.83,0
YES,0,0,147,142,88,3.97,0
NO,0,2,107,165,99,3.23,0.2
YES,0,2,146,102,114,3.23,0.1
NO,1,0,149,169,108,3.62,0
YES,0,1,170,112,112,3.78,0.1
YES,0,2,168,141,96,2.62,0.3
YES,1,0,127,103,118,3.89,0.2
YES,1,0,140,169,95,3.24,0.1
NO,0,2,104,145,86,3.73,0.1
NO,0,2,166,160,98,2.53,0.3
NO,0,1,145,100,85,3.33,0.3
YES,0,0,167,161,106,2.51,0
NO,0,1,134,101,119,3.03,0.2
YES,0,2,149,141,120,3.36,0.3
YES,1,0,124,117,119,3.55,0.1
NO,1,2,134,127,102,2.93,0
NO,1,2,140,115,120,2.55,0.3
NO,0,2,114,129,114,3.89,0.1
NO,0,2,159,159,88,3.57,0.3
YES,1,2,118,159,93,3.04,0.1
NO,0,2,127,151,87,3.06,0.3
YES,0,1,117,103,102,3.29,0.3
YES,0,1,108,135,106,2.89,0.3
YES,1,2,113,128,94,2.78,0.2
NO,1,1,120,164,89,2.75,0
NO,1,2,140,141,91,3.43,0.1
NO,1,0,154,126,114,3.02,0
NO,0,1,167,168,92,3.35,0
YES,0,2,120,122,85,3.91,0.2
NO,0,2,145,138,84,3.5,0.2
NO,0,2,135,132,99,2.64,0.3
NO,1,0,154,146,91,2.59,0.2
NO,0,0,126,148,87,2.63,0.1
YES,0,1,150,146,92,3.53,0.2
NO,1,2,159,133,114,3.66,0.1
YES,1,1,136,147,111,2.8,0.3
NO,0,0,123,148,104,2.81,0.1
NO,0,0,116,120,82,2.97,0.3
NO,1,1,168,130,81,3.25,0.3
NO,1,0,156,123,88,3.63,0.3
NO,1,0,140,121,110,3.92,0.2
YES,1,2,133,109,97,3.11,0.2
YES,1,0,152,167,94,2.64,0
YES,0,0,162,163,93,2.53,0.1
YES,0,1,148,127,80,2.53,0.1
NO,1,2,129,107,94,3.69,0.3
YES,0,0,158,153,120,3.93,0
YES,1,2,121,114,107,3.83,0.2
NO,0,2,136,153,92,3.27,0
YES,1,0,169,160,85,3.48,0.1
YES,1,0,164,142,106,2.94,0
NO,0,2,116,161,110,3.04,0
YES,1,2,149,140,112,3.97,0.1
NO,0,1,159,155,112,3.46,0
YES,1,0,115,134,111,3,0
NO,0,1,113,141,86,3.93,0.1
YES,0,0,126,100,93,3.93,0
YES,0,2,163,149,92,2.58,0.3
YES,1,0,159,139,107,2.55,0
YES,1,1,119,153,99,2.64,0.3
NO,1,1,169,121,90,3.26,0.2
NO,1,0,131,139,102,3.37,0.2
YES,0,2,107,110,112,3.21,0.1
NO,0,0,105,163,91,3.55,0
NO,0,2,108,143,100,3.12,0.1
NO,1,0,106,128,117,2.75,0.3
YES,1,0,166,163,91,3.7,0.1
YES,1,2,140,136,94,2.5,0
NO,1,1,118,140,104,2.77,0.2
NO,1,1,168,156,92,2.63,0.2
NO,1,1,166,154,117,3.56,0.2
NO,0,2,126,111,96,3.36,0.3
NO,1,2,166,158,106,2.69,0
NO,1,2,117,125,99,2.77,0.3
YES,0,0,128,121,94,2.72,0
YES,0,1,102,148,100,3.79,0
YES,1,0,127,156,109,3.53,0.1
NO,1,1,161,154,103,2.85,0.3
NO,1,0,142,142,111,2.72,0.2
NO,1,2,145,107,83,2.58,0
NO,0,2,109,134,85,2.67,0.3
NO,1,0,132,155,119,3.89,0.1
YES,1,2,133,118,112,2.64,0.3
NO,0,2,117,151,87,3.2,0.1
NO,0,2,166,162,87,2.74,0
YES,1,0,134,134,87,3.76,0.1
NO,1,1,111,130,95,3.83,0.1
NO,1,2,127,122,91,2.5,0.3
YES,0,2,126,157,80,3.46,0.2
YES,1,0,122,160,104,3.53,0.3
YES,0,2,143,125,118,3.11,0.2
YES,0,1,117,123,107,3.85,0.2
YES,0,2,127,140,92,2.7,0
YES,1,1,165,113,93,3.44,0
NO,1,0,141,113,115,3.39,0.2
YES,1,2,134,149,112,3.85,0.2
NO,0,0,159,148,81,3.6,0.1
NO,1,2,166,132,119,3.77,0.3
NO,0,1,117,165,83,3.21,0.3
YES,0,2,118,140,91,2.84,0.1
YES,0,1,130,118,101,2.75,0
YES,1,2,108,149,106,3.44,0
YES,1,1,114,158,111,2.93,0.1
YES,1,2,166,118,107,3.61,0.3
YES,1,0,134,137,113,3.44,0.2
NO,1,0,121,144,83,3.39,0.2
NO,0,2,129,125,111,3.43,0.2
YES,0,2,166,139,92,3.48,0
NO,1,2,170,169,116,3.17,0
NO,0,0,108,128,117,3.03,0
NO,1,1,164,126,102,3.55,0
YES,0,2,107,129,101,2.88,0.2
YES,0,2,155,153,105,3.5,0.1
NO,0,1,114,129,98,3.74,0.3
NO,1,0,161,151,106,3.56,0.3
YES,0,1,110,126,119,2.52,0
YES,1,1,117,118,110,2.91,0
NO,0,0,132,149,113,3.56,0.1
NO,0,0,152,165,105,3.94,0.3
NO,0,0,123,170,98,2.67,0.3
NO,1,1,139,116,97,3.75,0
NO,1,1,116,156,84,3.54,0
NO,0,1,163,165,93,2.95,0
YES,0,2,103,121,104,3.06,0
NO,0,2,115,107,120,3.12,0.1
NO,0,2,142,160,120,3.99,0.1
NO,0,0,108,107,102,3.08,0.3
YES,0,0,138,110,120,3.81,0.2
NO,0,2,169,109,115,3.89,0.2
YES,0,2,115,144,98,3.06,0.1
YES,0,1,112,103,112,3.02,0.1
YES,0,1,129,126,91,2.75,0.1
YES,1,2,147,115,93,3.55,0.2
NO,1,0,169,137,91,3.63,0.3
NO,1,0,147,121,99,3.56,0
NO,1,2,152,159,83,3.47,0.2
NO,1,2,168,168,116,2.89,0.3
YES,1,2,102,136,113,3.91,0
NO,1,1,114,133,107,2.95,0
NO,0,0,128,101,101,3.6,0.3
NO,1,1,167,166,87,2.99,0.1
YES,0,0,121,125,82,3.19,0.2
NO,0,0,146,163,116,2.65,0
NO,1,0,164,116,90,3.04,0.3
YES,1,2,124,113,114,3.37,0.3
NO,0,0,129,156,96,3.89,0
NO,0,2,111,143,87,3.47,0
YES,1,0,145,117,94,3.09,0.1
YES,1,0,168,125,91,3.22,0.3
YES,0,1,141,143,108,3.41,0.3
NO,0,1,111,156,82,2.75,0.2
NO,1,2,122,129,116,3.45,0.3
NO,0,2,111,149,81,3.87,0.3
YES,1,0,157,115,81,2.57,0.3
NO,1,2,157,155,109,2.64,0
YES,1,2,105,111,96,2.78,0.3
NO,0,0,105,162,111,2.73,0.1
NO,0,2,127,102,97,3.98,0.1
YES,0,1,139,117,105,3.14,0.2
NO,1,0,116,146,114,3.03,0.2
YES,1,1,154,150,108,2.7,0.1
NO,1,2,124,154,81,3.35,0.2
NO,0,2,142,157,107,2.73,0.1
YES,0,1,133,155,102,2.51,0
YES,0,0,146,105,111,2.52,0.1
NO,1,1,126,108,87,2.64,0.2
NO,1,2,134,148,116,2.88,0.1
YES,1,2,155,125,89,3.77,0.1
YES,1,1,125,108,112,4,0
YES,1,2,160,101,108,3.89,0.1
YES,1,1,125,118,86,3.54,0.1
NO,0,1,129,165,98,3.5,0
NO,0,0,128,103,105,3.96,0.1
NO,1,2,107,157,117,2.61,0.3
YES,1,2,116,115,97,3.47,0.2
NO,0,0,149,109,103,3.98,0.3
NO,1,0,117,160,102,2.74,0.1
YES,1,2,170,144,96,2.73,0.3
YES,0,0,168,127,80,3.43,0
YES,1,0,168,132,106,2.93,0.1
YES,0,1,103,127,98,2.86,0.3
YES,0,1,130,158,88,2.82,0.2
NO,1,1,164,152,113,2.92,0.3
YES,0,0,155,158,118,3.08,0.1
NO,0,0,143,162,120,2.9,0.3
YES,0,0,112,141,111,3.79,0.3
YES,0,0,117,111,83,3.59,0
YES,0,1,138,149,111,2.91,0.3
YES,0,0,101,155,111,3.88,0
YES,1,2,134,100,110,2.73,0.3
NO,0,0,134,112,110,3.46,0.1
NO,1,1,134,118,99,3.32,0.1
YES,1,0,168,100,117,2.71,0.3
NO,1,2,134,102,99,2.95,0
YES,0,2,140,139,115,3.15,0.2
YES,0,2,165,124,113,3.33,0.3
NO,1,1,139,136,119,3.86,0.2
YES,1,0,123,126,81,3.48,0.3
NO,1,0,125,151,84,3.75,0
YES,1,2,136,153,104,3.8,0
NO,0,1,144,162,95,3.05,0.1
NO,1,1,131,121,85,2.71,0.2
NO,1,2,131,158,112,2.95,0
YES,0,0,109,166,90,3.95,0
YES,1,2,157,106,107,3.03,0.2
YES,0,0,121,164,118,3.42,0.1
NO,0,1,159,129,109,3.48,0
YES,1,1,153,142,103,3.78,0.2
YES,1,0,169,162,110,3.16,0.3
NO,0,1,154,149,104,3.85,0.3
YES,0,2,113,114,90,3.2,0.1
YES,1,1,137,107,111,4,0.2
NO,0,1,120,159,104,3.25,0.3
NO,1,2,112,127,111,3.24,0.2
NO,0,0,135,143,106,2.61,0.1
YES,1,0,168,130,89,2.64,0.1
YES,1,2,132,101,99,2.66,0
YES,0,0,103,114,119,3.74,0
NO,1,1,139,163,89,3.23,0
YES,0,0,169,138,99,3.61,0
YES,1,2,149,113,104,3.63,0.2
NO,0,0,148,107,86,3.09,0.1
YES,1,1,115,118,111,2.63,0.3
NO,0,0,141,134,105,2.88,0.2
NO,1,0,139,130,84,3.46,0.3
YES,0,1,170,118,109,3.2,0.3
NO,1,2,118,122,115,3.1,0.2
NO,1,2,126,115,118,2.5,0.2
YES,0,1,142,158,91,2.58,0.3
NO,0,0,151,102,87,3.04,0.2
NO,1,1,108,145,89,3.33,0.2
YES,1,0,111,133,88,2.89,0
NO,0,2,130,150,94,2.59,0
YES,1,1,100,128,91,3.33,0.3
YES,1,1,129,120,89,2.96,0.1
YES,1,0,115,118,95,3.99,0.2
YES,1,2,123,137,84,2.91,0.2
YES,1,0,123,170,110,2.6,0
NO,0,2,156,143,110,3.14,0.2
NO,1,0,166,121,87,2.75,0.1
NO,1,2,122,152,81,3.24,0.2
NO,0,1,113,118,95,3.7,0.1
NO,1,1,131,122,102,3,0.1
NO,1,1,106,114,89,3.63,0.3
YES,0,0,105,163,107,3.7,0.2
YES,1,1,157,123,87,2.72,0.2
YES,0,1,166,149,91,2.55,0.1
NO,1,0,107,147,90,3.47,0.3
NO,0,1,161,157,87,2.52,0
YES,0,2,117,110,87,2.61,0.3
YES,0,0,111,103,100,3.41,0.2
NO,1,2,107,138,87,3.85,0
YES,0,2,105,130,110,3.5,0.3
YES,0,2,103,129,111,3.21,0.3
NO,0,0,127,109,108,3.15,0.3
YES,0,0,152,144,91,3.99,0.3
YES,1,0,128,144,101,2.51,0
YES,1,2,130,160,100,3.16,0.1
YES,0,2,158,103,81,3.36,0
NO,0,1,163,162,112,3.82,0.1
NO,0,0,154,170,90,3.72,0
YES,0,0,160,128,100,3.77,0.3
YES,1,2,125,142,110,2.7,0.3
NO,0,0,133,169,90,3.13,0
YES,0,1,127,119,119,3.66,0
NO,0,1,158,140,87,2.78,0
NO,0,0,132,133,92,2.51,0.3
NO,1,2,161,120,93,3.63,0
NO,1,2,148,149,115,3.9,0.3
YES,0,2,104,167,84,2.62,0.3
NO,1,2,102,111,110,3.93,0
YES,1,2,139,166,94,3.42,0.2
NO,0,0,145,156,85,2.79,0.1
NO,0,2,100,133,113,3.8,0
NO,1,1,102,152,118,3.31,0
NO,0,0,115,161,119,2.74,0.1
YES,0,0,151,147,100,2.61,0.1
YES,1,0,140,162,105,3.98,0.1
NO,0,1,105,127,109,3.67,0
YES,0,1,107,125,83,2.77,0.3
NO,0,2,117,156,109,3.08,0.3
NO,0,2,116,121,120,3.35,0.1
YES,1,2,114,107,92,3.04,0.3
NO,1,0,100,143,116,3.41,0
NO,1,1,129,120,85,3.93,0.1
NO,0,2,118,167,99,3.19,0
YES,0,2,119,133,118,3.13,0
NO,1,2,113,167,89,3.01,0.1
YES,1,1,121,128,82,3.02,0.2
YES,0,2,167,127,84,3.97,0.3
YES,0,0,164,145,87,3.59,0.2
NO,1,0,152,119,109,3.92,0
NO,0,2,138,131,109,2.71,0.2
NO,0,1,152,146,92,3.82,0.2
NO,1,0,100,111,107,3.1,0
YES,0,0,137,159,85,2.76,0.2
NO,0,2,124,101,114,2.64,0
NO,0,2,148,124,107,3.38,0
YES,1,0,110,138,90,2.85,0.1
NO,0,0,137,128,113,2.83,0
YES,1,1,144,111,89,3.08,0
NO,0,2,131,158,103,3.56,0.2
YES,1,0,147,147,114,3.47,0.1
NO,0,0,150,166,115,3.04,0.1
NO,1,2,132,141,106,3.41,0.2
NO,0,1,101,117,88,3.58,0.2
NO,0,1,165,112,113,2.61,0.1
YES,0,0,113,105,104,2.54,0.1
NO,1,0,165,106,91,3.65,0
YES,1,1,132,113,102,3.61,0.3
YES,1,2,163,139,106,3.12,0.1
YES,0,0,127,135,82,3.66,0.3
NO,1,2,147,139,116,2.71,0
NO,0,1,164,128,86,3.22,0.2
YES,1,2,106,149,107,3.15,0
YES,1,2,111,170,111,3.37,0.2
YES,0,2,142,113,103,2.55,0
YES,0,1,137,150,95,2.76,0.1
YES,1,2,124,132,87,3.49,0
NO,0,2,150,132,105,3.82,0.2
YES,0,2,121,141,115,2.67,0.1
YES,0,0,116,147,94,3.86,0.1
NO,0,0,121,167,86,2.64,0.2
YES,0,1,137,104,98,2.74,0.1
YES,1,0,126,118,114,3.3,0.2
NO,0,0,160,107,85,3.83,0.3
NO,1,0,132,108,89,2.52,0.3
NO,1,2,112,158,99,2.72,0.3
YES,0,2,138,156,100,2.77,0.2
YES,0,0,125,151,112,3.82,0.3
NO,0,2,156,116,89,2.87,0.2
NO,1,0,104,151,84,3.75,0.2
YES,1,1,143,120,92,3.61,0.1
NO,0,1,104,154,80,3.95,0.3
NO,1,0,114,117,103,3.55,0
NO,1,2,123,116,111,2.97,0.1
YES,0,1,168,158,97,2.99,0
NO,1,2,133,132,99,3.86,0.2
YES,1,1,125,137,96,3.12,0.3
YES,0,2,163,124,114,3.05,0.3
NO,0,0,158,107,86,3.54,0.2
NO,1,2,131,134,89,3.79,0.3
NO,1,0,149,100,84,3.9,0.3
YES,1,2,159,114,112,3.47,0.1
YES,0,1,107,127,96,3.43,0
NO,0,2,152,131,108,3.73,0.1
NO,0,0,167,160,85,3.2,0.1
NO,0,1,118,141,112,3.67,0
NO,1,1,131,155,107,2.77,0.2
YES,1,1,146,137,87,2.81,0.2
YES,0,0,109,119,118,3.64,0.1
NO,0,2,116,112,117,2.83,0
YES,1,2,120,141,87,2.59,0.2
NO,0,1,102,130,91,3.44,0.3
NO,0,2,124,132,115,3.56,0.3
NO,1,1,158,138,87,2.95,0.1
NO,0,0,120,159,108,3.79,0.2
YES,1,2,105,138,88,3.57,0.3
NO,1,0,167,155,100,3.7,0
NO,0,2,129,133,81,2.61,0
NO,0,2,141,122,105,3.07,0.1
NO,0,2,148,152,99,3.57,0.1
NO,1,0,135,126,97,3.76,0
NO,1,1,141,141,103,3.64,0.3
NO,0,0,154,121,84,2.98,0
NO,0,2,122,123,109,3.13,0.3
NO,1,2,133,153,114,3.81,0.3
NO,0,2,109,158,84,3.8,0.1
NO,1,0,145,165,104,2.86,0.1
NO,0,2,130,141,87,3.95,0.1
NO,0,1,163,158,82,3.78,0.1
NO,1,2,107,141,100,3.6,0
YES,1,1,162,166,101,3.85,0.1
YES,0,1,137,113,117,2.82,0.1
NO,1,0,114,149,108,3.32,0.1
NO,0,2,161,115,108,2.62,0
YES,1,1,105,148,99,2.57,0.1
YES,1,1,134,119,95,2.78,0.2
NO,0,2,151,146,104,3.14,0
YES,1,2,115,126,89,2.7,0.3
NO,1,2,133,166,81,3.92,0.3
NO,1,2,153,166,97,3.46,0
NO,1,2,133,137,101,3.83,0.3
YES,1,1,131,169,119,2.92,0.3
YES,1,2,126,105,94,3.58,0.3
NO,1,0,117,155,113,2.7,0.1
YES,1,2,102,141,111,3.33,0.2
YES,0,2,154,138,97,3.88,0.1
YES,0,1,148,118,118,3.51,0
YES,0,1,141,137,114,3.61,0.3
YES,1,0,137,104,110,2.67,0.2
YES,1,1,113,160,99,3.14,0.1
YES,1,2,170,161,93,2.56,0.1
YES,0,0,144,104,115,2.77,0
NO,0,2,161,137,93,3.09,0
NO,0,2,107,158,84,3.51,0
NO,1,1,113,118,83,3.78,0
NO,0,2,104,162,99,3.12,0.2
NO,0,1,157,129,81,3.12,0
YES,1,1,142,137,101,3.68,0.2
NO,0,0,148,161,89,3.26,0.3
NO,0,0,164,164,88,3.79,0.3
YES,0,1,164,107,100,3.35,0
NO,0,2,157,113,105,3.19,0
YES,0,0,123,151,113,3.54,0.2
NO,1,0,103,158,95,3.84,0.1
NO,1,2,167,149,107,3.3,0.1
YES,0,2,103,158,107,3.77,0.2
YES,0,2,146,146,90,3.94,0.1
NO,1,2,168,143,113,2.9,0.3
NO,1,0,157,147,86,3.85,0
YES,1,0,112,160,112,3.98,0
YES,1,0,160,113,91,2.64,0.2
YES,1,0,154,143,82,3.38,0.1
NO,0,1,155,169,110,2.9,0.2
NO,1,0,121,143,87,3.93,0.2
YES,1,1,144,160,91,2.69,0.3
NO,1,1,140,147,97,3.44,0.3
YES,1,2,147,153,108,2.96,0.3
NO,1,0,132,149,84,2.58,0.1
YES,0,0,116,142,93,3.89,0
NO,0,1,106,161,90,2.5,0.1
NO,1,0,150,117,96,3.89,0.3
YES,0,2,120,117,92,3.51,0
YES,1,1,113,109,105,3.7,0
YES,0,2,122,131,120,3.81,0.2
NO,0,1,138,154,112,2.87,0
NO,1,2,141,149,88,2.97,0.3
YES,0,2,128,119,106,2.82,0.2
NO,0,1,162,150,110,3.78,0
NO,0,0,103,117,87,3.86,0.2
YES,0,0,148,128,84,3.49,0.2
NO,1,2,152,162,109,3.14,0.3
YES,1,0,117,114,92,2.8,0.1
NO,0,1,121,149,109,2.89,0.3
NO,0,1,167,136,87,3.58,0.3
NO,1,0,132,122,93,3.29,0.1
NO,1,2,102,144,91,3.98,0
NO,1,1,103,119,91,3.31,0.3
YES,1,0,119,161,93,3.46,0.3
YES,0,2,113,150,88,3.55,0.1
NO,1,0,132,158,87,3.1,0.2
YES,1,0,101,126,90,3.79,0
YES,0,2,117,152,104,3.49,0
YES,1,0,154,163,88,3.94,0
YES,1,2,164,158,107,3.32,0.1
NO,0,2,160,103,109,3.72,0
YES,1,1,112,150,105,2.5,0.1
YES,0,2,162,127,94,3.7,0.1
NO,1,0,108,131,101,2.71,0.1
NO,0,2,166,111,105,3.82,0.2
NO,1,2,142,121,109,2.7,0.3
NO,0,0,158,151,107,3.27,0.2
YES,1,2,150,103,109,3.27,0.2
YES,1,1,111,137,110,2.63,0.1
NO,0,0,140,115,104,3.6,0.3
NO,0,2,144,148,120,3.86,0.2
YES,1,1,118,155,88,2.85,0.3
YES,1,1,123,136,88,3.45,0.1
YES,0,1,140,111,87,2.89,0.1
YES,1,2,129,105,118,3.4,0.3
YES,1,2,112,148,84,3.18,0.2
YES,1,1,100,129,96,3.69,0.2
YES,1,2,128,138,107,3.02,0.2
YES,1,1,118,163,94,3,0.2
YES,0,0,143,131,107,2.97,0.1
NO,1,0,152,169,94,3.98,0.3
NO,1,2,127,166,120,3.13,0.1
NO,1,2,170,120,110,3.03,0.2
NO,1,2,119,151,86,3.49,0.1
NO,1,0,169,115,96,2.86,0
NO,1,2,161,139,82,3.3,0.1
YES,0,1,151,116,88,3.59,0
NO,1,1,142,111,98,3.7,0.1
NO,1,0,104,120,112,3.82,0
NO,0,2,138,103,89,3.95,0.2
NO,0,2,156,119,83,3.44,0.1
YES,0,2,129,158,117,3.2,0.3
NO,1,2,161,142,91,2.51,0.2
YES,1,1,123,113,102,3.75,0
NO,1,2,156,114,113,2.58,0.2
NO,0,1,120,133,93,3.88,0
NO,0,0,158,127,108,3.05,0.1
YES,1,0,120,136,118,3.55,0.2
NO,0,0,105,113,97,2.6,0.2
NO,1,1,143,117,120,3.86,0.1
YES,0,0,102,147,92,3.81,0
YES,1,1,139,114,112,2.56,0.3
YES,0,1,114,152,105,2.61,0.1
YES,0,1,114,152,89,3.97,0.3
YES,1,2,111,114,91,2.92,0
YES,0,2,114,138,92,3.96,0.1
NO,1,2,167,156,80,3.01,0.3
NO,0,1,124,124,89,2.73,0.3
YES,1,2,138,153,91,3.56,0.1
YES,0,0,125,153,88,2.6,0.2
YES,0,0,148,111,116,3.13,0.1
YES,0,0,168,120,106,3.72,0.2
NO,0,1,135,136,116,3.66,0.3
YES,1,2,114,135,120,2.7,0.1
NO,1,0,130,106,85,3.39,0
YES,1,2,105,130,118,2.88,0.1
YES,1,0,124,142,94,3.46,0.2
YES,1,2,138,105,94,2.8,0.1
NO,0,2,147,139,88,2.64,0.1
NO,1,1,139,139,91,3.61,0.2
YES,0,1,113,161,108,2.53,0.3
NO,0,2,133,165,113,3.02,0.1
YES,0,2,168,156,117,3.67,0.1
YES,0,1,129,138,91,3.16,0.1
YES,0,0,129,155,91,3.53,0.2
NO,1,2,135,135,112,3.9,0.3
YES,0,2,117,132,82,3.38,0.2
NO,0,1,141,145,80,3.16,0.3
NO,1,1,156,162,107,3.71,0
NO,0,2,106,123,95,3.78,0.2
YES,0,0,106,152,116,3.88,0.1
YES,1,2,163,120,92,3.91,0.1
YES,1,1,109,157,100,2.75,0.1
NO,0,0,147,126,109,2.92,0.2
YES,0,0,107,119,90,3.28,0.1
YES,1,1,151,143,108,3.86,0
YES,1,0,111,146,100,3.82,0.3
NO,1,1,169,122,86,2.72,0.3
YES,0,1,132,133,108,2.65,0.1
YES,0,0,146,156,114,2.86,0
YES,0,1,161,156,107,3.21,0.1
YES,1,0,165,149,107,3.02,0.1
YES,1,1,133,104,112,3.61,0.2
YES,0,1,108,166,119,2.82,0.1
YES,0,0,108,109,94,3.52,0.1
YES,1,1,101,120,80,3.24,0
NO,0,0,153,155,106,3.04,0
NO,1,0,113,154,110,3.28,0.2
YES,0,1,159,101,80,3.82,0.2
NO,1,0,117,155,104,3.32,0
NO,1,0,166,151,108,2.84,0
NO,0,1,164,101,107,2.95,0.1
NO,1,2,123,164,117,3.71,0.2
YES,1,2,104,117,115,3.02,0
YES,0,1,168,109,91,3.76,0
NO,1,2,169,155,112,3.91,0.2
YES,1,0,162,139,94,2.91,0.3
YES,1,1,164,170,90,2.66,0.2
NO,0,0,101,156,91,3.2,0.2
YES,1,0,112,169,86,3.52,0
NO,0,1,169,143,96,3.04,0.1
NO,0,0,155,165,92,2.79,0.3
YES,0,0,111,101,112,3.19,0.2
NO,0,2,146,142,113,3.82,0.2
NO,1,1,164,118,91,2.86,0.2
NO,0,2,144,114,98,3.81,0.1
NO,0,2,131,109,98,2.82,0.2
YES,0,2,154,155,93,3.71,0.2
NO,0,0,165,107,104,3.57,0.1
YES,1,2,151,124,94,3.74,0.3
NO,0,2,111,139,82,3.89,0.1
NO,0,0,157,163,115,2.79,0.3
NO,0,0,160,112,87,3.79,0
NO,0,0,136,165,116,3.53,0.2
YES,0,1,111,151,85,3.32,0
NO,0,2,106,102,118,3.3,0.2
NO,0,1,142,151,118,2.87,0.1
NO,1,2,160,119,97,2.65,0
NO,1,0,154,148,108,2.88,0.2
YES,1,2,110,131,100,2.99,0.1
NO,0,2,126,109,112,3.69,0.2
YES,1,0,108,152,115,2.65,0.2
NO,1,2,163,166,117,4,0.3
YES,0,1,144,153,89,2.9,0.2
YES,1,1,140,128,100,3.78,0.2
NO,0,1,166,156,93,3.85,0.1
YES,1,1,126,127,88,2.84,0.2
NO,1,2,132,167,102,3.24,0.2
NO,1,0,104,126,105,2.71,0.2
YES,0,0,120,107,118,3.37,0
YES,0,1,154,128,114,2.85,0.3
YES,0,2,122,123,81,3.65,0.3
NO,1,0,157,116,114,3.92,0.1
NO,0,0,120,126,103,2.51,0.1
YES,0,1,119,103,89,3.65,0.2
YES,1,0,165,104,119,3.9,0.3
YES,1,1,124,168,109,3.97,0.3
NO,0,2,132,147,108,3.2,0.3
YES,1,1,121,136,102,3.09,0.2
YES,1,2,147,116,89,3.02,0.3
NO,1,1,155,142,89,2.63,0.1
YES,1,2,123,111,114,3.54,0.3
YES,1,2,156,142,118,3.3,0.3
NO,1,0,119,143,88,3.64,0.1
NO,1,0,131,160,116,3.31,0.3
YES,0,0,136,135,95,3.44,0.3
YES,1,2,128,165,103,2.84,0.2
NO,1,1,110,118,109,3.34,0.2
YES,1,0,108,153,111,3.63,0.2
NO,1,2,143,128,111,3.68,0.1
NO,0,0,170,133,101,2.68,0.2
NO,0,1,153,124,97,3.05,0.3
NO,1,0,168,153,112,3.49,0.3
YES,0,2,147,160,118,3.65,0.1
YES,1,0,127,133,82,3.83,0
YES,1,0,118,153,87,3.03,0
NO,0,2,137,160,106,3.27,0.2
YES,0,0,119,166,82,3.5,0.3
YES,0,2,117,159,89,3.73,0.2
YES,1,0,108,112,87,2.58,0
NO,0,1,159,102,113,3.66,0
NO,1,2,145,139,89,3.86,0.1
YES,1,0,144,111,85,3.46,0.2
YES,1,1,145,106,87,3.12,0.3
YES,0,1,131,153,90,3.99,0.3
YES,0,0,115,115,114,3.34,0.3
YES,1,0,116,147,82,3.93,0
NO,1,1,149,138,83,2.56,0.3
NO,0,0,149,145,97,3.47,0.2
YES,0,1,146,136,83,3.96,0.3
NO,0,0,162,162,96,3.67,0.3
YES,0,1,121,157,116,3.04,0.2
NO,0,1,104,161,103,3.65,0.1
YES,0,1,153,117,83,3.33,0.1
YES,0,2,112,155,90,3.51,0.2
YES,0,2,137,165,91,2.77,0.3
NO,0,1,166,106,120,3.72,0.3
YES,1,1,110,120,113,3.7,0
NO,1,1,108,116,105,2.7,0.3
NO,0,1,103,167,110,3.38,0.2
YES,0,1,131,102,108,2.96,0.3
NO,0,0,135,153,101,2.97,0.1
NO,0,0,169,142,117,3.13,0
NO,1,2,100,159,100,2.72,0.2
NO,1,2,152,158,107,3.18,0.2
NO,1,1,145,101,90,3.7,0.1
NO,1,0,167,130,106,3.11,0.1
NO,1,0,138,119,94,3.35,0.2
YES,1,0,120,150,102,3.64,0.3
YES,1,2,142,162,96,2.76,0.1
NO,1,0,134,158,86,3.39,0.3
NO,0,2,109,133,89,3.2,0.2
YES,1,0,101,137,81,3.61,0
NO,1,1,103,165,84,3.7,0.1
YES,1,0,140,166,110,3.56,0
YES,0,0,112,121,93,3.3,0
YES,0,1,124,120,87,2.77,0.2
YES,0,1,122,167,102,2.78,0
YES,0,1,143,115,107,2.6,0
NO,1,0,158,105,82,3.18,0
NO,1,0,168,122,111,2.57,0.1
NO,1,2,143,108,89,2.66,0.2
NO,0,0,147,146,106,2.57,0.3
NO,1,2,126,107,107,3.33,0.3
YES,1,2,120,144,112,3.78,0
NO,0,1,113,156,110,3.11,0.1
NO,1,0,123,142,98,4,0.1
NO,0,1,120,156,83,2.6,0.1
YES,1,0,160,131,84,3.45,0.1
YES,1,0,144,148,104,3.4,0.1
NO,0,1,142,104,88,3.01,0.3
NO,1,0,159,169,112,2.5,0.2
NO,1,2,118,121,119,3.63,0.1
NO,1,0,100,167,98,3.48,0.3
NO,1,2,141,127,116,3.93,0
YES,1,0,107,116,118,3.53,0.1
NO,0,2,128,135,94,3.27,0.2
NO,1,2,132,148,117,2.59,0.1
NO,0,0,115,129,85,3.5,0
NO,0,2,161,139,106,2.84,0
YES,0,2,123,118,83,2.72,0.1
NO,0,1,160,159,113,3.71,0.2
NO,1,1,118,129,113,2.94,0.2
NO,0,0,104,123,92,2.96,0.2
YES,0,0,140,119,80,3.71,0.2
NO,0,2,144,165,117,3.7,0.3
NO,0,0,136,137,112,3.72,0.2
NO,0,2,155,123,104,2.58,0.3
NO,0,2,126,119,107,2.54,0.2
NO,0,1,100,150,85,3.19,0.1
NO,0,2,122,151,113,3.85,0.1
YES,0,1,132,162,80,2.76,0
YES,0,1,158,116,101,3.08,0.3
YES,0,2,105,130,106,2.96,0
YES,0,0,123,103,116,3.69,0.3
NO,0,0,102,127,82,2.71,0.2
YES,1,1,156,157,81,2.7,0.3
NO,1,0,125,154,97,3.5,0
YES,1,0,170,155,87,2.55,0.3
YES,1,0,128,143,105,3.04,0.3
NO,1,0,136,116,85,3.85,0.1
NO,0,1,145,150,108,2.85,0.3
YES,0,1,109,100,104,3.52,0
NO,0,0,119,118,113,3.73,0
YES,1,2,128,164,82,3.53,0.3
NO,0,2,148,158,89,3.43,0
NO,1,2,105,125,84,4,0.2
NO,0,0,113,107,104,3.88,0.1
NO,1,2,101,119,100,3.93,0.1
YES,1,1,147,155,80,3.62,0
YES,1,2,138,154,87,3.02,0.2
NO,0,0,100,119,117,3.79,0.2
YES,1,0,126,159,94,3.21,0.2
YES,1,2,145,102,86,3.16,0.2
YES,0,2,112,156,94,3.87,0.1
YES,1,0,124,141,102,3.62,0.3
YES,1,0,153,127,90,3.31,0.3
NO,0,0,126,120,103,3.51,0.2
YES,1,0,150,161,85,3.01,0.1
YES,0,1,118,113,100,3.56,0.1
YES,0,0,151,127,95,3.56,0.2
YES,0,2,129,148,102,3.67,0.2
NO,1,1,143,101,103,3.34,0.2
YES,0,0,139,111,116,3.28,0.2
NO,0,2,168,144,81,3.8,0.1
NO,0,2,112,114,103,3.44,0
NO,1,1,131,148,105,2.98,0.2
YES,1,1,160,100,112,2.92,0
YES,0,1,143,123,89,3.21,0.3
YES,0,2,111,119,117,3.93,0.1
NO,1,1,140,152,94,2.87,0.1
NO,0,2,108,151,111,3.8,0.3
NO,0,0,100,134,81,3.79,0.1
YES,0,1,141,140,98,3.28,0
NO,1,1,165,165,92,3.24,0
YES,1,2,146,104,86,2.98,0.1
YES,0,2,138,161,98,3.7,0
YES,1,0,147,119,86,3.81,0.3
YES,1,1,146,168,88,3.73,0
NO,0,2,103,124,85,3.71,0.2
NO,1,0,105,135,91,3.97,0.1
YES,1,2,141,127,91,2.57,0.2
YES,1,2,164,133,87,2.87,0
NO,0,2,157,154,104,3.79,0.2
NO,1,0,137,170,117,3.78,0
NO,1,1,127,115,105,3.18,0.3
YES,0,0,107,121,107,3.57,0.1
NO,1,1,142,159,96,2.94,0.1
YES,1,2,162,150,101,3.48,0.1
NO,1,0,132,157,91,3.64,0.1
NO,1,0,154,119,99,3.31,0.2
YES,0,0,164,160,111,2.77,0.2
YES,1,1,142,132,104,2.74,0
YES,0,0,143,161,83,3.44,0.2
NO,1,1,139,109,86,3.06,0.2
NO,0,2,125,168,113,2.68,0.3
YES,0,2,147,158,93,3.97,0.3
YES,0,0,124,162,87,3.49,0.1
YES,0,2,138,158,117,3.06,0.2
NO,0,1,123,136,101,3.38,0.2
NO,0,1,100,156,108,3.06,0
YES,1,1,140,153,90,3.84,0.1
NO,0,2,136,130,102,3.04,0
NO,1,2,135,138,80,3.11,0
YES,1,1,168,155,112,3.31,0.3
NO,0,1,143,125,102,2.96,0
YES,1,0,160,162,97,3.38,0.3
YES,0,1,157,119,86,2.76,0.1
NO,1,1,165,138,100,3.04,0.3
NO,1,2,145,137,117,2.6,0
YES,1,1,170,114,116,3.54,0.1
NO,0,2,147,120,119,3.05,0.3
NO,1,0,157,114,101,3.26,0
YES,1,1,126,155,101,2.95,0.1
NO,0,0,100,126,87,2.97,0
YES,0,1,102,147,104,2.82,0.3
NO,1,0,159,146,81,3.77,0.1
YES,1,2,115,149,120,3.53,0.2
NO,1,1,143,151,105,2.94,0
YES,0,2,165,129,98,2.83,0
YES,0,2,109,111,111,3.49,0.2
NO,0,2,112,137,93,3.67,0
NO,1,0,168,104,106,2.75,0.3
NO,0,0,161,166,114,3.18,0
NO,1,1,113,115,98,2.59,0.3
YES,1,0,106,125,96,3.61,0.1
NO,0,1,122,124,89,3.95,0.2
YES,1,2,156,140,88,4,0
YES,0,0,101,133,101,2.96,0.2
NO,1,0,107,148,98,2.85,0.1
YES,0,0,158,159,114,2.82,0.2
NO,1,1,134,116,111,3.11,0
NO,1,0,166,124,100,2.5,0.1
YES,1,0,156,127,109,2.77,0.1
YES,0,0,136,117,81,3.32,0.2
NO,0,0,109,167,86,3.41,0.1
NO,1,2,169,113,96,3.03,0
NO,1,2,169,106,106,3.17,0.1
YES,1,2,110,154,95,3.76,0.1
NO,0,0,161,120,93,2.71,0.3
NO,1,1,157,145,102,2.66,0.2
NO,1,1,125,164,108,2.5,0.2
NO,0,0,148,135,99,3.2,0
NO,0,2,121,154,107,2.91,0
NO,0,0,118,126,108,2.76,0
NO,0,0,139,150,106,2.97,0.2
YES,1,2,164,159,99,3.75,0.3
YES,0,2,138,136,107,3.65,0
NO,0,0,107,123,107,3.39,0
YES,0,0,100,116,92,2.6,0.1
YES,0,1,154,105,83,2.61,0.3
NO,1,2,118,102,105,3.51,0
YES,0,0,155,115,81,3.79,0.2
NO,1,2,119,112,91,3.26,0.2
NO,1,2,105,156,93,2.79,0.3
YES,0,2,106,140,92,3.62,0.3
YES,1,1,149,133,85,3.14,0.1
YES,1,0,108,156,96,3.3,0
YES,1,0,135,124,105,3.93,0.1
NO,0,1,150,117,109,2.9,0.3
YES,0,0,103,162,116,2.98,0
YES,0,1,104,158,110,3.99,0.3
NO,1,2,107,111,120,2.6,0.3
YES,1,0,146,148,94,2.79,0
YES,0,2,154,121,88,3.52,0.3
YES,0,0,108,115,100,3.84,0
YES,1,0,105,138,104,3.72,0.1
YES,0,2,168,100,88,2.64,0
YES,1,0,125,127,113,2.69,0.1
NO,0,2,113,169,114,2.68,0.2
NO,1,0,115,111,84,3.3,0.3
YES,0,0,145,170,89,3.87,0.2
NO,1,0,141,158,104,2.5,0
NO,0,2,141,126,107,3.03,0.2
YES,0,2,113,118,111,3.85,0.3
YES,1,0,115,139,109,3.93,0.2
NO,0,2,133,158,103,3.85,0.3
YES,0,0,134,114,110,3.28,0.1
NO,0,2,127,169,92,2.88,0.2
NO,0,0,170,107,86,3.68,0.1
YES,1,0,116,163,111,2.87,0
YES,0,1,141,117,96,2.52,0
NO,0,1,106,166,116,2.91,0.3
YES,1,1,164,151,109,2.56,0
NO,0,2,145,115,90,2.73,0.3
YES,0,2,156,140,100,3.02,0
NO,0,1,167,118,106,3.29,0
NO,1,2,127,168,112,2.97,0
NO,0,1,139,166,111,3.88,0.2
YES,1,2,169,131,89,3.84,0.3
YES,0,1,161,126,86,3.11,0.2
YES,1,2,163,166,113,3.46,0
NO,1,1,156,110,108,3.91,0
YES,1,2,135,161,111,3.35,0
NO,1,1,108,142,104,3.65,0
YES,1,1,150,145,84,2.63,0
NO,0,1,100,148,101,3.51,0
YES,1,2,149,145,113,3.93,0.2
NO,1,2,166,133,90,3.69,0
NO,1,1,160,117,109,2.75,0.1
YES,0,1,148,166,115,2.76,0
NO,1,0,169,154,91,3.09,0.3
NO,0,2,102,156,106,3.94,0.3
YES,0,1,129,117,105,3.28,0.3
NO,0,2,124,111,97,3.08,0.3
NO,0,2,157,127,92,2.9,0
NO,1,0,168,126,112,2.53,0.2
NO,1,1,156,156,93,4,0.3
YES,1,2,120,122,114,3.38,0.2
NO,0,0,151,104,104,3.33,0.2
YES,1,0,151,127,103,2.95,0
YES,0,2,164,131,87,3.05,0.1
NO,1,0,116,104,111,3.59,0.2
NO,0,0,158,128,104,2.52,0.2
NO,0,2,118,141,87,3.82,0.2
YES,1,2,149,161,114,3.39,0.2
YES,1,2,164,134,108,3.69,0.3
NO,1,1,162,125,106,3.8,0.3
YES,1,0,122,159,108,2.56,0.2
NO,0,0,128,117,118,2.61,0.1
NO,1,0,155,118,103,2.93,0
YES,1,2,123,169,90,2.68,0.3
YES,1,2,119,138,103,2.63,0
NO,0,1,168,133,90,3.98,0
NO,0,1,144,130,90,3.28,0
YES,1,2,170,166,90,3.5,0.2
NO,1,2,111,121,105,2.63,0.2
YES,1,0,147,121,83,3.42,0.2
NO,1,0,153,129,94,3.67,0.2
NO,1,1,142,109,114,2.51,0
NO,0,2,114,113,114,2.92,0.1
YES,1,2,151,170,119,3.83,0.1
NO,1,0,121,141,99,3.71,0.1
NO,0,1,106,162,86,2.88,0.3
NO,1,2,149,169,83,2.57,0
YES,1,0,126,114,97,3.19,0.3
NO,1,2,128,154,108,3.99,0.2
YES,0,0,145,144,115,3.36,0.1
NO,1,2,109,161,109,3.47,0.2
NO,1,1,127,165,99,3.22,0.3
YES,0,0,139,110,95,3.96,0
YES,0,2,135,117,90,3.62,0.1
YES,1,0,111,101,83,3.12,0.3
YES,0,0,113,133,116,3.25,0.3
YES,1,0,121,118,112,2.51,0
YES,0,2,152,133,100,3.57,0.3
YES,0,1,142,116,112,2.67,0.2
YES,0,2,150,156,103,2.53,0.3
YES,1,0,151,103,92,3.4,0.1
NO,0,0,103,108,84,3.34,0.1
NO,1,0,148,115,105,3.17,0.1
NO,0,0,103,154,105,3.81,0.1
NO,1,2,159,157,84,3.21,0
YES,1,2,134,124,80,3.79,0.2
NO,1,1,150,152,98,3.86,0.1
NO,1,2,162,152,114,2.63,0.2
NO,1,2,107,139,83,3.32,0
YES,0,0,127,133,106,3.37,0
NO,0,2,142,114,99,3.52,0.1
YES,0,0,106,128,80,3.28,0.2
YES,0,1,117,121,94,2.59,0.1
NO,0,2,134,130,115,2.68,0.1
NO,0,1,111,164,89,2.9,0.1
NO,1,0,150,137,102,3.85,0.3
YES,0,2,133,113,86,3.14,0.2
NO,0,1,166,122,112,3.79,0.1
NO,1,0,168,149,103,2.76,0.2
NO,0,0,114,165,96,3.77,0.1
YES,0,2,162,154,86,3.89,0.2
NO,1,2,106,145,90,3.04,0.1
YES,1,2,121,168,94,2.94,0.1
NO,0,1,127,111,112,2.6,0
NO,1,1,138,168,99,2.58,0.3
NO,1,1,109,160,113,2.5,0.2
YES,0,2,143,127,90,2.86,0.2
NO,0,2,111,134,84,2.95,0.3
NO,0,1,168,127,96,3.58,0.2
YES,0,0,150,163,114,3.22,0.1
NO,0,2,107,157,88,2.54,0
NO,1,2,161,157,112,3.57,0
NO,0,2,148,150,82,3.28,0.1
NO,0,0,107,141,88,3.68,0.3
YES,1,0,136,165,87,3.46,0.3
NO,1,1,117,145,89,3.18,0
NO,0,2,152,112,82,3.09,0
YES,1,0,166,127,81,3.15,0.3
NO,1,1,142,129,91,2.99,0
YES,0,0,131,139,90,3.44,0.1
YES,1,0,106,109,120,3.09,0.2
YES,1,0,114,146,83,3.65,0
YES,1,1,145,126,84,2.78,0
YES,1,2,154,134,108,3.84,0.1
YES,0,0,109,101,84,2.84,0.2
NO,0,1,124,125,85,3.7,0.3
NO,0,2,141,125,90,2.75,0.2
NO,0,1,123,160,87,3.07,0.3
NO,1,0,139,105,110,2.95,0.3
YES,0,0,137,129,118,3.19,0.2
YES,1,0,146,135,99,2.92,0.3
NO,0,0,146,133,82,2.63,0
NO,0,0,117,114,105,2.72,0.2
YES,0,0,143,113,115,3.67,0.3
NO,1,0,123,165,113,3.17,0.2
NO,1,2,158,116,89,3.15,0.2
NO,1,1,106,117,114,3.31,0
NO,1,1,167,170,105,3.1,0
YES,0,0,107,168,96,2.51,0.2
NO,1,1,128,130,113,2.8,0
NO,1,0,115,155,113,3.93,0.1
YES,1,0,109,120,97,3.55,0.2
YES,0,0,121,143,116,4,0.1
YES,1,0,105,117,86,2.64,0.2
YES,1,1,146,138,108,3.64,0.1
YES,1,1,121,101,112,3.65,0.3
NO,0,1,163,134,80,3.62,0
YES,1,0,156,154,101,3.56,0.1
NO,0,2,126,134,90,3.22,0.2
NO,1,2,115,155,114,3.33,0.2
NO,0,2,106,168,80,3.87,0
YES,0,0,124,166,109,2.63,0.3
YES,0,1,106,113,80,2.74,0.1
YES,1,2,150,134,81,3.2,0.1
NO,0,0,146,154,101,3.11,0
NO,0,0,162,140,102,3.81,0.1
NO,1,2,108,123,95,2.56,0.2
NO,1,1,170,136,110,3.4,0.3
NO,1,0,143,144,115,3.08,0.1
YES,0,2,131,131,92,2.68,0
YES,0,1,168,131,114,3.69,0.1
NO,0,2,130,116,112,2.54,0.3
YES,0,0,101,109,118,2.89,0.3
NO,1,2,158,125,104,2.69,0.3
YES,0,1,161,157,83,3.49,0.1
YES,1,1,121,147,92,2.6,0
NO,0,2,154,115,94,3.12,0
YES,1,0,102,121,117,3.9,0.2
NO,1,2,128,114,80,3.32,0.1
NO,0,1,134,145,107,3.66,0
YES,1,0,148,113,88,2.88,0.1
NO,1,2,135,137,84,3.65,0.3
YES,0,0,103,138,89,3.28,0.3
NO,0,2,141,121,109,3.61,0
NO,1,2,123,168,97,2.85,0
NO,0,0,169,141,112,2.77,0.1
YES,0,1,121,103,88,3.93,0.3
NO,1,1,157,124,112,3.77,0.1
YES,0,0,123,169,102,3.21,0.2
NO,1,2,155,149,87,3.39,0.2
YES,1,1,155,117,82,3.62,0.2
YES,1,1,120,112,107,2.5,0.3
NO,0,0,120,157,104,3.43,0.3
NO,0,1,119,141,99,3.43,0.1
YES,0,0,158,135,115,3.2,0
NO,0,2,129,101,104,2.91,0.2
NO,0,2,112,107,80,3.74,0.2
YES,1,2,123,139,97,2.66,0.2
YES,1,2,140,161,97,3.99,0
NO,1,1,143,170,90,3.59,0.1
NO,0,1,160,118,92,3.8,0.1
NO,1,2,144,140,110,3.18,0.3
NO,0,1,129,100,96,2.93,0.2
YES,1,2,131,129,91,2.86,0.1
YES,1,1,128,100,108,2.85,0.3
YES,0,1,105,123,120,3.63,0
NO,0,1,130,141,91,2.98,0
YES,0,2,162,109,102,2.89,0.3
NO,1,0,157,156,105,3.61,0.1
YES,1,2,151,122,110,2.55,0.1
NO,0,2,143,106,88,2.84,0.3
YES,1,0,155,119,95,2.77,0.3
YES,1,1,125,157,93,2.78,0
NO,1,0,126,166,108,2.92,0
NO,0,1,122,144,111,2.55,0
NO,1,0,131,161,112,2.78,0
YES,1,0,166,117,86,2.78,0
YES,1,2,160,107,102,2.78,0.3
NO,1,1,161,105,97,3.62,0.2
NO,0,0,170,103,97,3.64,0.1
YES,1,0,104,127,85,3.54,0.1
YES,0,1,116,128,105,3.27,0
NO,1,1,150,153,107,3.24,0.3
NO,0,0,121,117,104,3.12,0.2
NO,0,2,155,130,115,3.27,0.1
NO,1,0,165,158,82,2.55,0.2
NO,0,2,122,153,86,3.6,0.1
NO,1,2,153,120,104,3.98,0.3
YES,0,1,113,133,120,2.87,0.1
NO,1,1,150,141,107,2.52,0.1
NO,0,0,133,118,112,3.24,0.2
YES,0,0,143,158,103,2.79,0
YES,1,0,113,132,99,2.96,0
YES,0,2,163,161,91,2.99,0.2
NO,1,2,153,148,108,3.79,0.3
NO,1,2,122,110,102,3.33,0.2
YES,0,0,167,104,119,2.67,0
YES,0,2,155,102,86,3.61,0.3
NO,0,2,163,139,118,3.05,0.2
YES,1,2,118,116,93,3.22,0.3
NO,1,0,104,104,91,2.76,0.2
NO,1,2,127,102,110,3.9,0.2
NO,1,0,156,132,94,3.78,0.2
NO,0,2,127,151,83,2.52,0
YES,0,0,141,103,92,2.95,0
YES,1,0,135,101,102,3.17,0.1
NO,0,1,128,110,91,3.29,0.1
YES,0,0,139,107,94,2.63,0
NO,0,0,162,117,112,3.58,0.1
YES,0,1,160,116,92,3.98,0.2
YES,1,0,159,164,114,3.07,0
NO,0,1,118,157,92,3.21,0.2
YES,0,0,165,137,92,3.06,0.2
YES,0,2,168,135,103,3.73,0.1
NO,1,2,108,100,104,3.83,0.2
NO,0,1,140,129,92,2.71,0.3
YES,0,2,154,113,118,2.84,0.1
NO,0,2,134,121,96,2.61,0.1
YES,0,1,138,125,116,3.82,0
YES,1,0,109,164,106,2.76,0.2
YES,1,1,125,116,110,3.25,0.2
NO,0,1,133,129,90,3.14,0.1
YES,1,2,117,152,91,3.57,0.3
NO,0,1,156,132,90,3.24,0.3
NO,0,2,128,139,112,3.38,0.1
YES,1,1,130,152,106,2.94,0.3
NO,0,1,162,126,102,3.26,0
NO,0,0,118,168,95,2.65,0.1
YES,0,1,103,100,86,3.49,0.1
YES,1,1,160,115,83,3.08,0
NO,1,0,121,137,114,2.7,0
NO,0,2,131,160,88,3.24,0
YES,0,2,134,144,86,2.84,0.1
NO,1,2,115,147,107,3.78,0.2
NO,1,0,121,150,118,3.79,0.1
YES,1,2,152,112,110,3.16,0.3
YES,0,2,118,142,108,3.13,0.1
YES,0,2,154,132,103,3.48,0.2
YES,1,0,138,165,87,3.74,0
YES,0,1,105,104,94,2.99,0.3
YES,0,0,101,154,106,3.52,0.1
NO,0,0,136,109,83,2.56,0
YES,1,1,115,165,83,2.93,0.3
YES,1,2,157,156,89,3.46,0.3
YES,1,0,111,104,109,2.8,0
NO,1,1,158,163,102,3.46,0.1
YES,0,0,133,164,96,2.74,0.1
NO,0,0,105,170,81,3.41,0.3
YES,0,1,116,151,95,3.5,0
YES,0,0,162,118,108,3.04,0.2
NO,0,0,150,142,87,3.35,0
YES,1,0,124,137,109,3.05,0
YES,0,2,150,124,98,2.76,0.2
YES,0,2,101,131,100,3.14,0.3
YES,0,0,157,169,109,3.18,0.2
NO,0,0,149,150,98,3.43,0.3
NO,0,0,107,135,90,2.74,0.1
YES,1,1,167,141,113,3.08,0
YES,0,0,118,121,119,2.72,0
YES,0,2,122,126,90,3.78,0.2
YES,1,0,110,160,84,2.71,0.3
NO,1,1,109,132,84,2.84,0
YES,1,0,141,111,90,3.71,0.1
NO,0,0,167,138,112,3.25,0
NO,0,0,114,125,109,3.7,0.3
NO,0,2,134,125,113,2.72,0
YES,0,0,133,146,91,3.51,0.2
YES,1,0,109,168,91,3.77,0.3
YES,0,0,168,117,85,3.07,0
NO,1,0,137,107,95,3.85,0
YES,0,2,104,114,90,3.35,0.2
NO,1,1,153,123,89,3.66,0.1
YES,0,0,135,102,98,2.63,0.2
YES,1,0,135,168,113,3.13,0.1
YES,1,2,157,133,98,3.23,0.3
NO,1,0,145,162,83,3.72,0.3
NO,0,1,132,154,110,3.59,0.2
NO,0,2,149,161,101,2.87,0.2
YES,0,0,153,161,104,3.98,0.2
NO,1,0,159,163,93,3.76,0.1
NO,1,2,113,149,80,2.65,0.3
NO,1,0,121,103,100,3.86,0
NO,0,0,151,152,98,3.54,0.3
NO,1,1,145,170,114,3.41,0.2
NO,1,1,122,167,114,2.71,0.1
YES,1,1,124,140,81,2.8,0.1
NO,1,0,143,118,104,3.71,0.3
NO,0,2,143,131,111,3.51,0
YES,1,1,121,105,92,2.78,0.1
YES,1,0,108,129,84,3.93,0.1
YES,1,1,153,116,87,3.87,0
NO,1,1,155,120,104,2.76,0
NO,1,0,137,102,97,2.92,0.2
NO,0,2,126,158,102,2.77,0.1
YES,1,1,120,120,114,3.56,0.3
YES,0,0,165,152,101,3.59,0
NO,1,2,112,115,87,3.89,0.1
YES,1,2,153,101,91,3.86,0.2
YES,1,2,147,114,113,2.73,0.3
NO,1,0,163,129,99,2.55,0
NO,1,0,157,141,93,3.45,0.1
YES,1,1,111,117,88,2.52,0.3
YES,0,0,117,109,107,3.3,0
YES,0,0,149,148,110,3.22,0.2
YES,1,2,117,135,95,3.13,0.3
NO,1,1,103,104,108,2.63,0.3
NO,0,2,138,133,94,3.9,0
YES,0,2,139,141,104,3.36,0.3
YES,0,0,106,154,92,2.65,0.1
YES,0,0,152,122,93,3.6,0.1
YES,1,1,154,109,113,2.65,0.3
YES,1,0,122,137,113,3.3,0.3
YES,0,1,139,140,95,3.37,0.2
NO,0,0,151,130,104,2.77,0.3
NO,0,1,135,161,95,3.2,0.3
NO,0,1,132,163,113,2.6,0.3
NO,1,2,102,134,100,2.65,0
YES,0,0,136,137,87,3.87,0
YES,1,2,119,114,108,3.55,0.2
YES,1,0,150,161,89,3.54,0
NO,0,2,124,105,107,3.22,0
NO,0,1,141,117,92,3.5,0.1
NO,0,1,155,144,102,3.89,0.2
NO,0,0,157,140,112,2.63,0.2
NO,0,0,170,151,106,3.41,0.1
NO,1,2,152,115,95,2.84,0
YES,1,2,169,133,118,2.54,0.3
NO,1,0,107,126,92,3.07,0.2
YES,1,2,150,133,101,3.29,0.3
NO,0,0,114,170,85,3.8,0.1
YES,0,1,155,129,82,2.83,0
YES,1,0,117,163,82,3.39,0
NO,0,0,145,118,103,3.99,0.3
NO,0,2,102,117,112,3.71,0
NO,0,1,163,154,102,3.13,0.3
NO,1,0,137,148,90,3.91,0.2
NO,0,0,145,145,111,2.83,0.2
NO,0,0,154,118,91,3.92,0.1
YES,0,0,114,144,82,3.82,0
YES,0,0,163,107,113,2.68,0.2
YES,1,2,142,113,90,2.62,0.3
YES,1,1,143,125,89,3.03,0.3
NO,1,1,117,148,115,2.86,0.2
NO,1,1,103,164,117,2.81,0.3
YES,1,1,143,164,84,3.26,0.2
YES,0,0,132,136,105,3.77,0
YES,1,1,150,105,93,2.94,0
YES,1,1,147,161,115,2.51,0.3
NO,1,2,108,103,113,3.05,0.3
NO,0,2,168,167,108,3.5,0.2
NO,1,1,166,146,106,2.88,0.3
YES,0,2,122,157,107,2.74,0.3
YES,1,0,116,125,109,3.98,0.3
NO,1,0,154,126,110,3.99,0.1
YES,1,1,127,112,80,3.5,0.2
NO,0,1,114,102,107,3.54,0.2
YES,1,2,124,152,109,3.6,0.2
YES,1,2,105,154,105,2.58,0.2
YES,1,0,129,155,120,3.6,0.1
NO,1,2,101,121,105,2.78,0.3
YES,0,2,133,131,91,2.97,0
NO,0,2,132,104,112,3.92,0
NO,0,0,121,148,105,2.53,0.1
NO,0,0,124,160,103,3.82,0
YES,0,2,110,129,87,3.24,0.1
NO,0,2,154,162,83,3.58,0.1
NO,0,0,127,154,83,3.85,0.3
YES,0,0,110,116,104,2.98,0.3
NO,0,1,135,113,85,3.43,0.3
NO,1,1,134,113,102,3.89,0.3
YES,0,0,161,122,98,3.99,0.3
NO,1,1,161,128,91,3.47,0
YES,1,0,109,122,111,2.71,0
YES,0,2,104,122,100,2.52,0
YES,1,0,102,148,96,2.66,0.2
NO,0,2,126,161,82,3.42,0.3
YES,0,2,154,144,119,3.75,0.3
YES,0,2,130,165,86,2.66,0.2
NO,0,2,158,152,116,3.57,0.1
YES,1,1,131,130,87,3.23,0.3
NO,0,2,121,117,88,2.97,0
NO,0,0,169,118,81,2.53,0.1
YES,0,1,124,121,108,3.59,0.1
YES,1,1,124,148,91,3.48,0.3
NO,0,2,100,132,92,2.98,0.2
YES,0,2,167,102,105,2.92,0.3
NO,1,2,138,162,106,3.09,0.2
YES,0,2,115,119,115,2.99,0.2
NO,0,1,106,113,84,3.27,0
NO,0,2,125,123,112,3.04,0.2
NO,0,0,113,154,106,3.66,0
YES,1,2,100,113,95,3.32,0.1
NO,0,0,142,127,90,3.17,0
NO,1,1,103,101,95,2.88,0.3
YES,1,2,165,167,113,3.75,0
YES,0,2,152,164,113,3.5,0.2
YES,0,1,160,166,86,3.42,0.3
NO,1,2,129,157,108,3.82,0.1
YES,0,0,155,140,89,2.81,0.2
NO,1,2,111,161,104,3.22,0
NO,0,1,118,158,109,3.5,0.2
YES,1,0,101,104,104,3.92,0.2
YES,1,1,150,150,81,3.57,0.2
NO,1,2,131,110,106,3.72,0
NO,1,0,105,140,89,3.39,0.2
YES,0,2,158,168,88,2.96,0.2
NO,1,1,162,144,107,3.99,0.3
NO,1,2,123,118,112,2.79,0
NO,0,2,144,123,101,2.82,0.2
YES,0,1,170,158,92,2.74,0.1
NO,1,2,162,129,83,3.91,0.2
NO,1,1,149,112,108,2.65,0.1
NO,1,0,141,160,80,2.79,0.3
YES,1,2,104,146,95,3.12,0.3
YES,0,1,107,129,101,3.79,0.3
NO,1,0,123,100,106,3.57,0.1
NO,1,2,142,118,116,3.03,0.1
NO,1,1,161,103,112,3.94,0.1
NO,0,2,125,118,111,3.08,0.1
NO,0,0,122,162,92,3.75,0
YES,0,1,154,154,101,3.28,0.1
NO,1,1,169,116,92,3.83,0
NO,1,1,154,127,118,3.98,0.1
NO,1,1,170,157,88,3.88,0.3
YES,0,2,151,119,109,2.73,0.2
YES,1,0,138,117,81,3.6,0.2
YES,0,2,140,105,93,3.09,0.1
YES,0,1,144,117,107,3.93,0.3
YES,1,0,100,121,102,3.47,0
YES,0,2,166,116,102,3.25,0
YES,0,0,145,111,88,2.77,0.2
YES,1,0,142,151,89,2.79,0.2
YES,1,2,103,104,91,3.68,0.3
YES,0,1,148,119,110,3.35,0.3
NO,0,1,151,138,82,2.85,0.3
YES,1,2,143,111,114,3.85,0.3
NO,0,2,137,123,87,3.33,0.3
YES,1,1,159,156,88,3.75,0
NO,1,2,104,136,112,2.68,0.1
NO,0,0,126,120,99,2.98,0.3
YES,1,1,151,114,83,3.23,0.1
NO,0,0,155,135,87,2.84,0.1
YES,1,0,101,158,95,3.56,0.1
YES,0,2,167,107,103,3.86,0.1
NO,1,2,108,105,86,3.71,0.1
YES,0,1,137,139,88,3.7,0
YES,0,0,145,114,110,3.42,0
NO,0,0,131,120,89,3.25,0.1
YES,0,0,138,158,113,2.52,0.2
YES,0,2,157,111,88,2.91,0.1
NO,1,1,155,114,101,2.97,0.3
NO,0,0,104,132,111,3.04,0.2
NO,0,2,167,167,112,2.52,0.1
YES,1,1,131,124,94,2.83,0
YES,1,1,151,138,110,2.92,0.2
NO,0,0,111,125,110,2.82,0
YES,1,0,106,148,86,3.84,0.1
NO,0,1,107,168,92,3.49,0.3
NO,0,1,142,135,101,3.86,0.3
NO,1,2,115,124,104,3.02,0.2
YES,0,0,114,137,108,2.6,0.3
NO,0,0,156,147,103,2.8,0
NO,1,0,147,168,112,3.87,0.3
YES,0,0,125,129,102,2.9,0.1
YES,1,0,101,129,111,2.93,0.2
NO,1,0,163,152,101,3.31,0
NO,0,0,155,117,99,2.57,0.2
YES,1,0,103,109,117,3.18,0
YES,0,0,132,106,84,3.67,0
YES,1,2,161,160,96,3.24,0.1
NO,0,1,140,156,116,3.52,0.3
NO,1,1,109,106,110,3.85,0.3
NO,1,2,138,133,81,3.97,0.3
NO,1,0,169,163,106,2.62,0.3
NO,1,2,162,102,91,3.71,0.1
NO,1,2,143,151,105,3.54,0.3
NO,0,2,107,160,110,3.19,0.2
NO,0,2,103,125,81,3.17,0.3
NO,1,0,150,164,110,2.68,0.2
YES,0,0,111,146,112,3.75,0
YES,1,1,106,165,108,3.53,0.1
YES,1,2,136,133,82,3.69,0.2
YES,1,1,107,102,118,2.99,0.3
YES,1,1,110,121,93,3.02,0.3
YES,1,2,138,108,107,2.55,0.1
YES,1,0,102,122,97,3.21,0.1
NO,0,2,129,149,98,3.13,0.3
NO,1,0,101,113,107,2.93,0.3
NO,0,0,139,159,80,2.51,0.3
YES,1,2,101,153,82,3.98,0.1
NO,1,2,123,166,109,3.55,0
NO,1,1,132,164,81,3.5,0.1
YES,1,1,164,123,117,3.87,0.3
YES,1,2,136,131,106,3.4,0.3
YES,0,0,123,168,85,2.92,0.3
YES,1,1,134,164,120,2.87,0
NO,1,0,122,111,98,2.79,0.3
NO,0,1,119,149,110,2.6,0.3
YES,0,1,136,143,118,3.73,0
YES,1,0,115,155,117,2.96,0
NO,1,1,150,144,88,3.17,0.3
NO,1,0,158,123,115,3.99,0.2
NO,1,1,149,154,112,3.01,0.3
NO,1,2,165,120,120,2.76,0
NO,1,1,144,132,103,3.03,0.1
YES,1,1,151,111,102,2.58,0.3
YES,1,1,103,160,87,2.77,0.3
YES,0,0,170,106,81,3.92,0.2
NO,1,1,144,159,95,3.22,0.2
NO,1,2,127,170,97,2.64,0.1
YES,0,0,128,124,91,3.83,0.3
YES,1,0,103,137,80,3.9,0.1
NO,0,1,132,118,88,3.11,0.3
NO,0,1,119,154,108,3.54,0.1
NO,1,1,116,107,91,3.33,0.3
YES,0,0,165,126,85,3.68,0.3
NO,0,2,100,108,110,3.82,0
YES,1,2,166,132,82,2.79,0.2
YES,0,1,124,144,111,2.84,0.1
NO,0,0,119,119,93,3.05,0.2
NO,0,1,127,140,96,3.23,0.3
YES,1,0,166,140,117,3.02,0
YES,0,2,139,126,95,2.82,0
NO,1,1,151,158,120,2.51,0
NO,1,2,115,104,95,3.44,0
NO,1,2,125,148,103,3.1,0.1
YES,1,0,112,120,84,3.91,0.2
YES,1,0,120,156,99,3.06,0.1
NO,0,1,101,164,117,2.52,0.2
NO,1,0,127,154,96,3.78,0
YES,1,1,112,142,94,3.32,0.3
NO,0,0,130,152,94,3.93,0.3
NO,0,1,123,111,85,3.47,0
NO,1,1,162,122,93,2.54,0.3
NO,1,2,105,157,89,3.77,0.3
YES,1,1,102,150,84,3.47,0.2
YES,0,1,156,137,88,2.67,0
YES,0,0,105,120,95,3.36,0
NO,1,2,158,139,91,3.91,0.2
YES,1,2,142,121,101,3.31,0.1
YES,1,1,160,147,89,2.85,0.1
YES,0,2,151,115,108,2.76,0.1
NO,1,2,143,153,89,3.21,0.1
NO,1,2,159,156,104,3.9,0.2
NO,0,1,110,119,105,2.81,0.3
YES,1,1,130,110,90,3.57,0.2
YES,1,1,131,144,116,2.94,0.2
YES,0,1,109,108,110,3.67,0.2
NO,0,2,168,115,113,3.32,0
YES,0,2,169,104,81,3.49,0.3
YES,0,2,149,143,96,3.65,0.3
NO,0,1,142,153,94,3.15,0.1
NO,0,1,127,142,80,2.91,0
YES,0,0,169,136,86,3.86,0.3
YES,0,2,100,127,99,2.58,0.3
NO,1,2,106,118,110,2.77,0.1
YES,1,1,119,119,118,2.58,0.2
NO,1,1,109,133,118,2.68,0.2
YES,1,2,116,108,87,2.79,0
YES,0,2,159,128,88,2.65,0.1
NO,1,1,137,159,81,3.73,0.3
NO,0,0,149,150,94,2.9,0
NO,0,2,123,144,86,2.7,0.2
YES,1,1,141,145,83,2.78,0.1
NO,0,0,146,131,110,2.88,0.3
YES,1,1,118,115,88,3.77,0.2
YES,1,2,114,116,107,2.58,0.3
YES,1,1,112,119,104,3.09,0.3
YES,0,1,144,154,85,3.87,0.3
YES,0,1,131,146,100,2.62,0.3
YES,0,0,114,162,116,3.12,0.3
YES,0,0,112,117,103,3.27,0
NO,1,2,169,103,113,2.6,0.2
NO,0,1,158,159,113,3.42,0.1
YES,0,1,142,153,90,2.62,0.2
NO,1,2,156,165,108,3.54,0.3
NO,0,0,102,164,101,2.66,0.1
NO,0,0,164,137,117,2.91,0
NO,0,1,100,167,82,3.02,0.3
NO,0,1,147,153,116,3.26,0.2
YES,0,0,158,113,92,3.87,0.2
YES,0,0,117,135,111,3.28,0.1
YES,0,1,117,169,104,3.86,0.1
NO,1,1,139,145,80,2.87,0.3
NO,1,1,103,167,97,3.45,0.1
NO,0,1,117,166,91,2.6,0.1
NO,0,2,101,120,109,3.31,0.3
YES,1,2,118,170,84,2.86,0.2
YES,0,2,151,142,115,3.11,0
NO,1,2,110,134,113,2.74,0.2
YES,1,0,124,167,113,2.99,0.2
YES,0,0,148,109,99,2.84,0.1
NO,1,1,140,123,110,3.75,0.2
NO,1,0,115,132,98,3.25,0
YES,1,0,135,122,116,3.12,0.1
NO,0,2,129,103,117,2.66,0.3
NO,1,2,113,140,118,3.63,0.2
NO,0,0,108,134,114,3.97,0.1
YES,0,0,140,122,118,3.31,0
YES,1,1,111,158,83,2.57,0.1
YES,0,2,115,168,92,3.65,0
NO,0,1,167,143,85,2.83,0
YES,1,2,152,159,87,4,0.1
NO,0,0,167,135,91,2.61,0.2
NO,0,2,164,134,96,3.77,0.2
NO,1,2,157,126,84,3.52,0.2
NO,1,2,161,134,80,3.34,0
YES,0,2,151,120,105,3.7,0.3
NO,1,2,106,123,104,3.17,0.3
NO,0,0,124,120,112,2.62,0
YES,1,1,101,159,87,3.99,0.3
YES,1,2,111,144,108,3.39,0.2
NO,1,2,102,159,120,3.69,0
YES,1,2,151,118,92,3.95,0.3
NO,1,2,164,112,85,2.85,0.1
NO,0,1,137,157,109,3.98,0.2
NO,1,2,104,100,118,3.19,0.2
YES,1,0,153,110,97,2.5,0.1
YES,1,2,117,100,105,3.69,0.1
YES,1,1,149,141,96,3.82,0.3
YES,0,0,156,130,90,3.42,0.3
YES,0,1,163,132,108,3.87,0
NO,0,0,167,161,102,3.49,0
YES,0,1,127,160,114,3.72,0.3
YES,1,1,127,140,108,3.16,0
NO,0,0,155,134,91,3.38,0
NO,1,0,161,145,87,3.31,0.2
NO,1,2,136,102,85,3.31,0.3
NO,0,0,107,150,103,3.22,0
YES,0,0,170,126,91,3.5,0
NO,1,2,170,168,107,3.78,0.2
NO,1,2,152,154,90,3.07,0.3
YES,0,1,116,160,114,3.58,0
NO,0,0,161,100,112,2.61,0.1
YES,1,0,134,132,115,2.5,0
YES,0,0,136,158,89,3.3,0.1
NO,0,1,113,165,84,2.64,0.2
NO,1,2,127,156,113,2.56,0
NO,1,2,168,115,80,2.71,0.2
YES,1,1,110,125,111,3.13,0.2
NO,0,1,107,128,105,3.42,0.1
YES,1,1,111,136,89,2.71,0.3
NO,1,0,141,130,112,3.22,0
YES,0,0,140,145,109,3.54,0
YES,1,0,125,109,80,3.39,0.2
YES,1,2,142,166,85,2.8,0.1
YES,1,2,148,105,94,2.66,0.3
NO,0,0,117,113,84,3.41,0.3
NO,1,0,121,122,114,3.98,0.1
YES,0,1,141,119,96,3.86,0
NO,0,2,115,170,110,3.94,0.3
NO,0,1,112,100,91,3.88,0.3
YES,0,1,153,147,88,3.28,0.3
YES,1,1,158,112,112,3.04,0.3
NO,1,2,117,124,103,3.31,0.2
YES,1,1,152,101,107,3.73,0
NO,0,0,109,126,91,3.36,0.2
NO,0,2,117,150,115,2.68,0.1
YES,0,0,126,116,110,2.94,0.3
NO,1,0,110,139,86,3.83,0.2
NO,1,0,155,168,105,2.54,0.3
YES,1,1,126,143,93,2.83,0.1
NO,1,2,133,140,110,3.04,0
YES,0,2,143,133,96,3.18,0.2
YES,0,2,110,133,105,3.35,0
NO,0,2,135,120,116,3.29,0.2
NO,0,0,131,141,103,3.19,0.2
NO,0,0,130,149,85,3.8,0.1
YES,0,1,145,146,119,2.81,0.3
YES,1,1,138,123,111,3.46,0.1
YES,0,0,111,127,86,3.1,0.3
YES,1,1,151,113,120,2.86,0.3
YES,0,2,170,141,95,2.9,0
NO,1,2,161,160,92,2.71,0.2
NO,0,2,121,163,109,3.44,0.1
NO,1,1,168,126,87,2.68,0
NO,1,1,116,154,108,3.25,0
NO,0,1,129,168,83,3.18,0.1
NO,0,1,153,157,111,3.4,0.3
NO,0,1,134,115,106,2.74,0.2
NO,1,0,122,115,115,2.91,0.2
NO,0,1,148,161,85,2.72,0
YES,0,1,108,118,110,3.06,0.1
NO,0,1,134,142,114,3.09,0.1
YES,1,2,121,159,92,3.92,0.1
NO,1,1,138,152,95,2.58,0
YES,0,1,163,162,108,3.28,0.2
YES,0,2,109,132,113,2.92,0.3
YES,1,1,167,115,97,2.57,0.3
NO,1,2,110,154,91,3.22,0.2
NO,1,1,143,142,98,3.39,0
YES,0,1,154,156,118,3.56,0
NO,0,2,146,169,80,2.66,0.2
NO,0,2,132,127,103,2.64,0
NO,1,0,167,164,87,3.16,0.2
YES,0,0,124,113,98,2.9,0.2
YES,0,1,111,158,99,3.04,0.2
YES,0,0,118,125,87,3.44,0.1
NO,0,0,161,147,113,2.98,0.3
NO,1,0,107,124,116,2.78,0.2
YES,0,2,139,165,90,3.05,0.3
NO,1,1,137,164,107,3.23,0.3
NO,1,2,145,151,104,3.82,0
YES,0,0,133,123,101,3.28,0.2
YES,1,0,140,100,112,3.53,0.1
NO,1,1,154,150,112,3.24,0.1
NO,0,2,157,151,120,2.6,0
YES,0,0,162,136,97,3.31,0.1
NO,0,1,170,135,102,2.5,0.1
YES,1,2,139,168,111,3.7,0.2
YES,1,2,123,160,116,3.15,0.2
YES,0,1,132,157,91,2.73,0
NO,1,1,151,136,93,2.63,0.3
YES,0,2,108,119,106,2.52,0.2
YES,1,0,112,109,93,2.58,0.1
YES,0,0,164,147,91,3.95,0.1
NO,0,0,160,162,85,2.86,0.3
YES,0,2,119,157,88,3.28,0.2
YES,1,2,138,126,112,3.29,0.1
NO,1,1,124,102,107,3.39,0
NO,1,2,105,159,106,2.54,0.3
NO,0,2,137,143,109,3.43,0.1
YES,1,2,163,103,96,2.57,0.3
NO,1,0,140,100,108,2.99,0.2
YES,0,0,112,116,107,3.8,0.3
NO,1,1,161,109,86,3.65,0.2
NO,1,1,167,116,93,3.54,0
NO,0,0,164,112,101,3,0.3
NO,1,1,159,153,107,3.1,0.2
YES,0,0,126,143,105,2.76,0.2
YES,0,1,108,161,118,3.77,0.1
NO,0,1,120,141,99,2.52,0.3
NO,1,2,107,106,94,3.1,0.2
NO,0,1,107,100,117,3.16,0
YES,1,1,167,146,110,2.5,0.1
YES,0,1,145,168,113,3.58,0.2
YES,0,2,152,156,103,2.82,0.3
YES,1,1,112,101,99,3.27,0.1
NO,1,2,115,107,108,3.19,0
NO,1,1,116,158,114,3.75,0
YES,1,2,111,166,94,3.26,0
NO,0,2,110,156,95,3.59,0
NO,1,1,148,169,83,3.48,0.1
YES,0,2,170,142,91,3.87,0
YES,1,0,155,107,112,3.11,0
NO,1,0,150,115,96,2.55,0
NO,0,2,159,159,84,3.03,0
NO,0,1,126,157,106,3.31,0
NO,1,2,136,125,117,3.54,0
YES,1,0,102,148,100,3.2,0.1
YES,0,0,147,121,111,3.49,0.1
YES,0,0,105,118,95,3.54,0
NO,1,2,170,164,114,3.21,0.3
YES,0,1,117,153,100,3.87,0.2
YES,1,0,142,125,114,2.88,0.1
YES,1,0,129,154,83,2.63,0
YES,1,1,116,155,88,2.57,0.3
NO,0,2,147,157,97,3,0.3
NO,1,2,165,119,87,2.92,0.2
NO,0,2,153,105,112,3,0
NO,1,0,121,118,108,3.48,0.1
YES,0,2,119,135,94,3.42,0.3
YES,0,2,124,137,113,2.99,0.1
NO,1,2,107,154,104,2.86,0.2
YES,1,0,101,160,112,3.84,0.1
NO,1,0,158,148,98,2.55,0.1
NO,0,0,167,154,92,2.8,0.2
YES,1,0,102,142,119,3.32,0.3
NO,1,1,119,105,102,3.4,0.3
YES,1,2,118,125,96,3.75,0
YES,0,1,114,155,89,3.79,0.3
YES,1,0,134,127,118,3.08,0.2
NO,0,2,114,115,86,2.67,0.2
YES,1,0,121,145,120,2.85,0.3
YES,1,2,116,141,113,3.38,0
YES,1,0,152,121,89,3.24,0.3
YES,0,1,132,166,94,3.25,0.1
NO,1,2,120,148,89,3.89,0.3
YES,0,0,168,151,107,3.13,0.1
YES,0,0,113,154,81,3.21,0.3
YES,0,0,102,120,84,3.46,0
NO,0,2,123,115,103,3.58,0.3
NO,1,1,123,134,88,3.63,0.2
NO,1,1,123,134,112,3.16,0.1
YES,1,1,159,105,98,3.33,0.2
NO,0,2,104,116,107,3.64,0.2
NO,0,1,115,113,85,3.13,0.3
NO,0,0,157,111,92,2.53,0.3
YES,0,0,123,102,82,3.86,0.1
NO,1,1,103,119,104,3.24,0
NO,1,1,104,134,112,2.86,0.1
YES,0,1,159,168,120,3.26,0.2
YES,0,0,140,167,90,3.48,0.2
NO,1,0,131,142,111,2.58,0.3
YES,0,0,162,166,118,2.81,0.2
YES,1,2,152,127,119,3.7,0.1
NO,1,2,146,117,110,3.84,0.2
NO,0,0,145,162,120,3.19,0
NO,1,0,143,139,118,3.65,0.3
YES,1,2,170,163,118,3.75,0.2
NO,1,2,133,156,86,3.56,0.3
NO,1,0,146,107,95,3.71,0.2
NO,0,2,159,151,119,2.89,0.1
YES,1,1,168,149,119,2.91,0
YES,1,1,168,135,115,3.65,0.2
NO,0,2,126,113,113,3.65,0.3
NO,0,1,144,108,104,3.41,0.3
YES,1,1,141,150,106,2.66,0
YES,0,0,142,100,107,3.27,0.2
NO,1,0,105,157,85,3.23,0
YES,0,2,160,149,106,3.73,0.3
YES,0,2,149,166,99,2.89,0.3
YES,0,0,130,148,118,3.82,0
YES,1,2,140,114,99,3.24,0
YES,0,2,101,169,111,2.92,0.1
NO,1,0,143,141,94,3.94,0.3
NO,0,1,135,129,90,3.43,0.2
NO,1,0,170,124,86,3.14,0.1
YES,0,0,151,157,95,2.97,0.1
YES,0,2,140,156,112,2.98,0.3
YES,1,2,151,120,93,3.77,0.2
YES,0,0,115,154,105,3.03,0.3
YES,1,2,105,151,96,3.37,0.1
NO,0,1,150,164,98,2.76,0.1
YES,0,0,110,158,96,3.41,0
NO,1,0,163,120,92,3,0
YES,0,0,164,118,103,2.79,0.3
NO,1,1,137,162,94,3.48,0.3
YES,0,2,111,122,114,3.53,0
NO,1,1,122,120,113,3.84,0.3
YES,0,0,163,155,82,3.95,0.2
NO,0,0,104,128,90,3.9,0
NO,1,1,121,155,90,3.36,0.1
YES,0,2,168,119,102,3.36,0
YES,1,0,128,144,97,2.88,0.2
NO,1,2,167,155,84,3.55,0.2
NO,0,2,155,170,118,2.89,0.2
YES,0,2,157,111,92,3.44,0
YES,0,2,157,150,83,3.14,0
NO,0,2,163,124,110,2.51,0
YES,0,2,115,153,97,3.04,0.3
NO,1,2,103,156,94,2.51,0.2
YES,1,1,151,114,87,3.76,0.1
YES,0,1,167,160,81,2.66,0.2
YES,0,2,152,139,94,3.97,0.2
NO,0,1,115,121,104,3.2,0.3
NO,1,1,135,106,116,2.74,0.1
NO,0,0,126,166,96,2.99,0.3
NO,0,0,107,145,105,3.79,0.2
NO,0,2,150,109,115,3.59,0.2
YES,1,1,122,139,85,3.05,0.3
NO,0,0,144,151,88,3.08,0.3
YES,1,1,104,111,80,2.63,0.1
YES,1,1,120,113,99,3.84,0.1
NO,1,0,143,112,110,3.31,0
NO,1,0,122,158,87,3.25,0
YES,0,2,160,158,108,2.75,0
YES,0,2,106,116,93,4,0.1
NO,0,1,108,121,90,3.71,0
YES,1,0,148,138,108,3.92,0.1
YES,0,0,145,142,89,3.69,0
NO,1,0,166,150,112,3.38,0
NO,1,2,120,151,82,2.95,0.2
YES,0,0,155,111,89,2.62,0
NO,1,1,109,103,84,2.66,0.2
YES,0,2,110,148,89,3.44,0.1
NO,0,0,124,132,87,2.58,0.3
YES,1,1,140,150,110,3.19,0.3
NO,1,1,149,162,110,3.77,0
YES,0,0,120,127,99,3.48,0.2
NO,1,0,162,159,112,3.99,0.2
YES,1,2,114,120,112,3.68,0.2
NO,0,0,103,106,96,2.53,0.2
YES,0,1,146,122,95,2.74,0
YES,0,1,161,134,97,3.8,0
NO,0,2,101,150,101,3.33,0.3
NO,1,2,163,167,93,2.78,0.3
YES,1,1,124,166,92,3.68,0.3
YES,0,2,125,121,83,2.83,0.1
NO,1,1,155,162,111,2.74,0.3
YES,0,2,167,121,119,3.04,0.1
NO,1,0,132,127,86,3.69,0
YES,1,2,158,148,94,2.92,0.3
YES,1,0,139,105,106,3.93,0
YES,1,0,142,148,104,3.12,0.1
NO,1,0,104,150,116,3.77,0.1
YES,0,0,153,107,113,2.82,0
YES,0,2,151,161,113,3.68,0.2
NO,0,1,152,148,109,2.59,0.2
NO,1,0,106,107,103,2.8,0.3
NO,0,1,164,100,102,2.59,0.3
YES,1,1,137,117,106,2.85,0.1
YES,0,0,158,152,87,2.59,0.1
YES,1,2,147,162,111,3.48,0.3
NO,1,2,116,166,95,2.54,0.1
YES,1,0,157,133,114,3.38,0.1
NO,1,2,110,106,85,3.99,0.1
YES,0,2,167,170,92,3.17,0.3
NO,0,2,116,115,85,2.95,0.2
NO,0,0,107,120,86,2.75,0.2
YES,0,0,106,151,112,3.52,0.3
YES,0,1,112,144,99,3.68,0.2
YES,0,1,123,114,107,2.61,0.3
YES,1,2,141,134,105,3.79,0.3
YES,0,2,144,145,95,2.68,0
NO,0,0,137,152,112,3.05,0
YES,0,1,159,149,114,2.52,0.2
NO,1,1,114,102,94,3.02,0.2
YES,1,2,161,159,88,3.86,0.3
NO,0,2,109,139,82,3.6,0.1
YES,0,0,114,146,99,2.6,0
NO,1,0,109,143,88,3.79,0.3
YES,0,1,169,165,107,3.96,0.3
NO,0,0,102,141,98,3.41,0.1
NO,0,0,163,125,81,3.04,0
NO,1,0,118,107,119,3.09,0
NO,1,2,135,143,81,3.08,0.1
YES,0,2,117,109,91,3.15,0.2
NO,0,0,123,124,93,3.27,0.2
NO,1,2,107,105,90,2.74,0
NO,1,1,127,146,102,3.56,0.3
YES,1,1,131,121,81,3.68,0.3
YES,0,0,145,163,100,2.5,0.2
YES,1,2,121,156,111,3.27,0.2
NO,1,2,161,115,112,3.75,0.2
NO,0,1,167,150,99,2.54,0.1
NO,0,2,109,121,106,3.86,0.1
NO,0,2,152,108,93,3.05,0
NO,1,2,160,130,92,3.01,0.3
YES,1,2,137,170,101,3.63,0.2
NO,1,2,116,143,105,3.82,0.1
YES,1,0,167,131,98,2.94,0
YES,0,1,125,136,88,3.74,0.1
YES,0,1,136,166,83,3.52,0.3
NO,0,0,158,130,89,3.7,0
NO,1,0,116,101,85,3.91,0.1
NO,0,2,164,158,94,3.39,0
NO,1,2,145,159,111,3.97,0.2
YES,0,1,127,121,107,2.96,0
NO,1,0,156,154,88,3.04,0.1
NO,1,2,120,102,92,3.87,0.3
YES,0,1,123,139,114,3.13,0.2
NO,0,2,148,128,88,2.51,0.2
NO,1,2,131,128,111,3.54,0.2
NO,0,2,113,148,88,2.81,0.1
NO,1,1,136,149,87,3.09,0.3
YES,0,0,109,169,103,3.7,0
NO,1,2,145,157,94,3.69,0.3
NO,1,2,148,155,108,2.78,0.2
NO,1,2,133,155,90,2.59,0.2
YES,0,1,148,144,89,2.89,0.3
YES,0,1,136,120,87,3.5,0
NO,1,0,130,100,108,3.14,0.3
YES,1,0,124,119,104,3.23,0.2
NO,1,1,160,123,103,3.15,0
YES,0,1,146,160,90,2.97,0.3
YES,0,0,118,126,104,3.73,0.1
YES,0,2,167,126,117,3.98,0.2
YES,0,1,153,144,103,3.6,0.1
YES,0,1,105,170,97,3.56,0.1
NO,0,0,139,129,80,3.1,0.1
NO,1,2,150,131,96,2.92,0
YES,1,0,160,154,91,3.23,0
NO,0,1,121,106,101,3.68,0.3
NO,1,0,139,129,117,3.47,0.3
NO,0,1,126,132,86,3.77,0
NO,1,2,135,164,95,3.02,0.2
YES,0,0,153,153,93,3.29,0
NO,1,2,108,132,110,3.6,0.3
NO,1,0,144,103,107,3.38,0.2
YES,0,1,170,162,85,3.31,0.1
NO,0,1,151,164,85,2.83,0
YES,0,0,115,152,92,3.28,0.3
NO,0,2,164,151,92,3.6,0
NO,0,1,109,148,114,3.29,0.3
YES,1,2,136,125,113,3,0
YES,1,2,157,115,109,3.56,0.3
NO,1,2,100,158,120,3.41,0.3
YES,1,0,142,122,105,3.67,0
YES,0,2,115,131,115,3.71,0
NO,0,0,164,120,120,3.07,0.3
YES,1,2,111,166,90,2.72,0
NO,0,2,161,160,84,3.32,0
NO,1,2,124,161,83,3.13,0.2
YES,1,1,103,170,82,3.13,0.3
YES,0,1,165,145,99,3.21,0.1
YES,0,2,103,104,95,2.7,0.2
YES,1,2,145,109,84,3.92,0.3
NO,0,0,166,120,107,3.43,0.2
YES,1,0,148,160,93,3.79,0.3
NO,1,2,135,119,107,3.9,0
NO,0,2,168,164,86,2.85,0.3
YES,1,0,147,166,99,2.61,0.2
YES,1,1,110,150,114,3.11,0.3
NO,0,2,139,150,110,3.51,0.1
NO,1,0,109,121,90,3.39,0.1
YES,1,2,137,118,98,3.29,0.3
NO,0,0,108,152,119,3.79,0
YES,1,2,105,156,81,2.87,0.1
NO,1,2,104,117,111,4,0
NO,1,0,159,122,111,2.72,0.2
YES,1,1,131,144,112,3.91,0.3
YES,1,1,123,113,98,3.22,0.1
NO,0,2,113,123,109,3.28,0.1
YES,1,0,148,163,115,2.93,0.1
NO,1,2,170,122,86,3.32,0.2
NO,0,0,165,155,81,2.73,0.2
YES,1,2,100,155,111,2.69,0.2
YES,1,1,128,129,92,3.48,0.1
NO,1,1,104,151,80,3.22,0.3
YES,1,1,123,156,98,3.04,0.3
YES,0,1,106,112,88,3.81,0.3
NO,0,2,141,156,103,2.68,0
YES,0,2,119,109,82,2.54,0.1
YES,1,1,111,135,80,3.33,0.1
YES,1,0,144,128,85,2.92,0.2
NO,1,0,100,123,106,3.83,0.2
YES,1,0,147,124,83,3.24,0.1
YES,1,0,158,109,103,3.83,0.2
YES,1,1,100,121,118,3.61,0.2
NO,1,0,108,162,89,3.7,0.2
NO,0,0,156,152,88,3.81,0.1
YES,0,1,131,118,113,2.96,0.1
NO,0,1,128,130,97,3.85,0
YES,1,0,122,165,101,2.96,0.1
NO,1,0,103,153,97,2.91,0
NO,1,0,158,154,87,3.92,0
YES,1,2,116,138,88,3.71,0.2
YES,0,1,148,164,94,3.44,0.1
NO,1,0,153,134,92,3.09,0
YES,1,0,163,126,90,3.93,0.1
YES,1,2,105,109,116,3.46,0
NO,0,2,144,125,89,3.63,0.2
YES,0,0,141,133,97,2.9,0.1
NO,0,2,168,117,110,2.92,0.2
YES,1,2,158,125,108,3.23,0.2
YES,1,0,163,128,103,3.68,0.2
YES,0,2,144,169,106,3.73,0.3
NO,1,2,123,168,94,3.22,0.2
YES,0,1,126,130,110,3.49,0.1
YES,1,1,146,162,95,3.33,0.2
NO,1,0,140,103,80,2.74,0.2
YES,1,2,102,121,101,3.75,0
NO,0,0,166,169,113,3.57,0
YES,0,2,125,166,108,3.83,0.1
NO,0,0,151,134,105,2.74,0
YES,0,2,163,115,107,3.5,0.3
NO,1,2,122,121,109,3.9,0.3
NO,1,0,165,151,92,2.69,0.2
YES,1,0,152,118,104,3.56,0.1
NO,1,1,105,125,80,2.86,0
NO,0,2,166,112,101,3.28,0.3
YES,1,1,147,105,82,3.04,0.1
NO,0,1,102,106,84,2.92,0.3
NO,0,0,113,101,111,3.48,0.2
NO,1,0,100,136,85,2.64,0
YES,1,2,137,115,117,2.64,0.1
YES,0,1,136,120,90,2.53,0.3
NO,0,2,140,158,116,3.34,0.2
NO,1,1,154,134,108,3.24,0.2
YES,1,0,103,118,95,3.25,0
YES,0,2,145,131,111,3.79,0.1
NO,0,1,110,149,110,2.75,0
NO,0,1,102,133,117,3.11,0
YES,1,0,116,148,103,3.24,0.3
YES,1,1,114,150,104,2.78,0.2
NO,1,0,151,150,93,3.18,0
NO,1,0,165,101,98,3.25,0.1
YES,1,1,133,169,118,3.21,0.3
NO,1,1,107,152,103,3.04,0.3
YES,0,0,109,118,84,3.8,0.2
YES,0,1,150,124,94,3.14,0
YES,0,1,101,118,92,3.94,0
NO,1,0,106,130,93,3.03,0.3
NO,1,1,122,141,86,2.88,0.3
NO,1,0,117,164,119,2.85,0
NO,0,2,129,156,112,2.84,0
NO,1,0,117,133,106,2.92,0.2
YES,1,2,114,137,84,3.06,0.3
YES,0,2,149,138,111,2.64,0.2
NO,1,1,152,104,88,2.86,0.2
YES,1,1,105,119,90,3.6,0
NO,0,1,103,145,115,2.61,0.3
YES,1,0,125,132,111,3.62,0.2
YES,0,1,123,154,97,3.81,0.2
NO,1,0,120,153,115,3.39,0.3
YES,1,2,112,159,116,3.01,0.3
YES,1,2,156,121,116,3.88,0.2
YES,1,2,118,121,82,3.26,0.3
NO,0,0,111,151,110,3.17,0.2
YES,1,2,141,145,120,3.75,0.2
NO,1,2,129,124,103,2.53,0
NO,1,0,128,169,120,2.95,0
YES,0,0,166,143,97,3.67,0.2
NO,0,0,112,144,83,3.54,0
NO,0,2,137,121,83,2.96,0
NO,1,0,111,121,80,2.78,0
NO,0,1,133,153,89,2.76,0.3
YES,1,1,109,136,90,3.94,0.3
NO,0,1,117,161,94,3.18,0.3
YES,0,0,156,126,113,3.31,0
YES,1,1,134,120,91,3.75,0.2
YES,1,0,146,155,105,3.47,0.2
NO,0,2,164,153,81,2.9,0.3
YES,1,2,110,157,104,2.97,0.2
YES,0,1,159,151,103,2.74,0.3
YES,0,1,142,111,90,2.8,0
NO,1,0,107,117,85,3.52,0.2
NO,0,0,116,149,107,3.61,0.1
YES,1,1,148,139,104,3.39,0.2
NO,0,0,113,152,93,3,0.2
NO,0,2,162,157,99,3.64,0.3
NO,0,1,133,154,85,3.74,0
NO,1,0,129,139,103,3.08,0.2
YES,1,1,159,168,87,2.65,0
NO,1,1,163,119,88,3.55,0.2
YES,0,2,108,150,115,2.83,0.2
YES,0,0,149,124,82,3.53,0.1
YES,1,0,142,119,80,3.99,0.2
YES,1,0,131,113,86,3.46,0.1
NO,1,1,135,155,105,3.34,0.3
NO,0,0,167,131,102,2.57,0.2
YES,0,0,122,157,103,3.71,0
NO,1,1,105,170,109,3.49,0.2
YES,0,1,133,106,116,3.97,0
YES,1,0,113,147,108,3.5,0.2
YES,0,2,111,117,116,2.59,0.2
NO,1,2,101,103,96,3.93,0.2
YES,0,2,114,112,118,2.54,0.3
NO,0,1,157,170,105,2.65,0.3
NO,1,2,168,156,108,2.78,0.3
NO,1,2,117,137,108,2.88,0.3
YES,0,0,106,114,105,2.59,0.3
YES,0,0,112,163,84,3.73,0
YES,1,2,144,143,94,2.85,0.1
YES,1,2,146,154,113,3.04,0.1
YES,0,0,142,146,104,3.29,0.2
NO,0,2,132,117,108,3.79,0
YES,1,1,131,103,117,3.86,0
NO,1,1,129,143,117,2.66,0.2
NO,1,0,153,151,89,2.93,0.1
YES,0,0,120,132,101,3.44,0.3
NO,0,1,127,167,88,3.43,0
NO,0,2,146,150,83,3,0.1
YES,1,1,170,108,82,3.74,0.1
NO,1,0,161,168,119,3.54,0.2
YES,0,1,114,123,84,2.51,0.2
NO,0,2,130,166,107,3.49,0.1
NO,0,1,164,122,112,3.51,0
YES,0,2,142,165,118,3.41,0.3
YES,1,2,114,116,94,3.56,0.3
NO,1,2,139,123,86,3.61,0.3
NO,1,1,119,154,95,3.61,0.3
NO,1,2,148,123,99,3.99,0.2
YES,0,1,122,170,86,3.97,0.2
NO,0,1,131,127,87,2.5,0.2
NO,1,0,142,145,95,3.9,0
YES,0,0,136,114,81,3.49,0.2
NO,1,0,106,102,106,3.37,0.1
YES,0,2,166,105,111,3.42,0
NO,0,0,136,130,98,2.5,0.1
YES,0,0,136,133,111,3.76,0.1
NO,0,2,160,101,92,3.43,0
NO,1,1,163,130,103,3.51,0.1
NO,1,2,153,129,119,3.52,0
YES,0,0,111,124,114,3.35,0.3
NO,1,0,155,110,96,2.78,0.1
NO,0,0,170,154,116,2.62,0.2
NO,1,0,127,106,86,3.1,0.3
YES,1,1,162,120,109,2.86,0.1
NO,0,1,144,135,88,2.7,0.2
NO,0,2,124,134,87,3.31,0.3
NO,0,0,134,149,83,2.86,0.2
NO,0,2,133,139,101,3.65,0.3
YES,0,2,169,124,86,2.54,0.2
YES,0,2,133,161,96,2.91,0.2
NO,0,1,120,167,115,3.94,0.1
NO,1,0,161,104,92,3.25,0
NO,1,0,165,154,105,3.95,0.3
YES,0,1,129,169,120,2.64,0.2
NO,1,2,138,131,97,2.79,0.1
NO,1,0,111,169,90,2.55,0
YES,1,0,125,124,92,3.55,0.2
YES,1,1,138,124,107,2.92,0.2
NO,1,0,129,114,92,2.94,0
YES,1,1,163,156,106,3.49,0.2
YES,0,0,163,100,99,2.96,0.1
NO,1,1,109,129,100,3.17,0.2
YES,1,0,164,167,81,3.45,0.1
YES,1,1,159,154,103,2.56,0.2
NO,0,1,146,143,93,3.14,0.1
NO,0,0,147,116,114,2.55,0.3
NO,1,0,135,145,82,2.9,0.1
NO,1,2,168,138,116,3.48,0.1
YES,1,0,100,144,92,3.7,0
YES,1,0,154,125,93,3.71,0.1
NO,1,0,101,113,111,3.47,0.3
YES,0,1,107,135,94,2.68,0.1
YES,1,2,160,100,87,3.07,0.2
NO,1,1,105,102,90,2.63,0
YES,1,0,168,152,116,2.51,0.3
YES,0,2,100,135,118,2.65,0.3
NO,0,0,101,148,113,3.12,0.2
NO,0,2,138,103,81,3.05,0.1
YES,1,2,114,157,90,3.62,0.2
YES,0,2,161,165,118,3.72,0.3
NO,0,0,166,152,117,3.74,0.2
NO,1,2,135,117,107,2.57,0.1
NO,1,0,137,100,84,3.17,0.2
YES,0,1,127,160,118,2.74,0.2
YES,0,2,101,124,85,3.43,0.1
YES,0,2,150,111,115,3.41,0.1
NO,0,1,136,162,107,3.41,0
NO,0,0,128,118,114,3.59,0.2
YES,1,2,127,170,88,3.25,0.3
YES,1,2,113,101,82,3.4,0.3
YES,1,2,143,150,109,2.57,0.2
YES,1,1,157,131,85,3.48,0.3
NO,0,2,115,105,103,2.83,0.2
YES,1,1,153,158,119,2.79,0.1
NO,1,2,170,123,90,3.68,0
NO,0,1,135,170,114,2.96,0
YES,0,2,130,115,116,3.07,0.3
NO,0,2,146,149,87,3.54,0
NO,0,1,143,146,120,2.53,0.2
YES,1,0,151,129,120,3.24,0
NO,1,1,113,141,114,2.5,0
YES,0,1,115,123,80,3.49,0.2
NO,0,1,153,142,90,3.85,0.1
YES,1,2,128,161,81,3.7,0.3
YES,0,0,161,125,90,3.65,0.1
NO,1,2,100,127,107,3.48,0.1
YES,0,1,103,120,96,3.08,0.3
YES,1,0,106,122,115,2.96,0.3
NO,1,1,130,154,111,3.3,0.2
NO,0,2,125,169,89,2.97,0.3
YES,0,2,102,133,91,3.26,0.2
YES,1,2,138,154,96,3.92,0.3
YES,0,1,147,151,91,3.58,0
NO,0,1,144,104,87,3.3,0
YES,1,1,108,100,92,3.31,0.2
YES,1,1,125,135,83,3.37,0.3
NO,1,2,135,159,98,3.6,0
YES,1,1,135,148,91,3.62,0.2
NO,0,0,130,151,102,2.58,0
YES,1,2,163,143,86,3.77,0.3
NO,0,1,169,128,92,3.04,0.3
YES,0,2,140,159,112,2.8,0.3
NO,1,2,134,151,88,2.63,0.1
NO,0,1,141,166,110,2.65,0.3
YES,1,1,156,108,83,2.72,0.3
NO,1,1,152,145,83,2.92,0
YES,0,2,115,100,106,3.4,0
YES,0,1,110,145,88,3.61,0.2
NO,1,1,137,156,101,3.08,0
NO,0,0,122,131,91,2.83,0.1
NO,1,0,163,157,86,2.81,0.1
YES,0,2,126,127,101,3.36,0.2
NO,0,1,116,104,98,3.66,0.1
YES,1,1,111,111,94,3.63,0
YES,0,1,113,122,113,3.81,0
YES,0,2,105,106,107,2.74,0.3
NO,1,2,153,149,88,3.1,0.2
NO,1,2,144,149,88,3.25,0.3
YES,0,1,156,115,93,3.41,0.1
YES,0,1,102,156,107,3.34,0
NO,1,1,121,170,99,3.9,0.3
YES,0,0,104,125,97,3.32,0.1
NO,1,0,146,155,109,2.5,0.1
YES,0,2,109,163,110,3.3,0.2
NO,1,2,106,115,85,3.1,0.3
YES,0,1,147,126,84,3.06,0
NO,1,0,101,132,83,2.68,0.3
NO,1,1,167,124,112,3.62,0
YES,1,1,170,134,85,3.73,0.2
NO,0,2,110,125,94,2.67,0.2
YES,0,2,158,143,109,3.42,0.2
YES,1,1,161,112,86,3.48,0.1
YES,0,2,152,134,108,3.56,0
NO,0,2,106,123,91,3.25,0.2
YES,1,1,149,130,104,4,0.3
NO,1,0,130,104,101,3.71,0.2
NO,0,2,120,101,87,3.51,0.1
YES,0,2,169,159,101,3.95,0.1
YES,1,0,113,134,84,2.64,0.1
NO,0,2,136,103,90,3.67,0.2
YES,0,2,158,119,98,3.88,0.3
NO,0,2,162,123,118,3.59,0.2
NO,1,1,141,164,93,3.88,0.3
YES,1,0,102,145,91,3.07,0.3
NO,0,2,141,106,89,2.55,0.2
NO,0,0,109,123,119,2.69,0.1
YES,0,0,106,137,96,2.82,0.3
YES,0,1,156,107,115,3.33,0.1
YES,0,2,142,134,117,4,0
NO,0,1,155,119,87,3.98,0
YES,1,0,133,119,108,3.62,0
NO,1,0,144,124,109,2.81,0.3
NO,0,0,134,162,108,2.52,0.1
YES,0,0,143,136,105,3.9,0.3
YES,0,2,102,115,111,3.89,0.1
NO,0,2,102,115,86,2.53,0.3
YES,1,2,131,150,105,2.8,0.1
YES,0,2,135,144,98,3.36,0.1
YES,0,2,129,151,86,3.34,0
YES,0,1,156,103,98,3.22,0.2
YES,1,1,154,129,110,3.82,0
YES,0,0,130,125,86,3.58,0
NO,0,1,125,114,94,3.88,0.3
NO,0,1,119,146,101,3.99,0
YES,0,1,140,136,106,3.93,0.1
NO,1,2,148,127,120,3.13,0
YES,1,0,170,107,114,3.76,0
YES,1,0,135,119,111,3.53,0.2
NO,1,0,107,165,95,2.69,0.3
YES,1,0,147,100,84,3.62,0.3
YES,1,1,151,166,98,2.58,0
NO,0,1,140,126,111,3.57,0.1
NO,0,1,133,124,105,3.64,0
YES,0,0,105,119,91,3,0.1
YES,1,2,109,166,103,3.87,0.1
NO,1,1,133,151,113,3.99,0
NO,1,2,143,156,98,3.94,0.2
YES,0,1,169,125,107,3.37,0.1
NO,0,2,118,120,110,2.74,0.3
YES,1,0,149,120,93,3.49,0.1
NO,0,2,101,127,111,3.1,0.3
YES,0,1,129,102,109,2.68,0.2
NO,0,1,135,156,101,2.8,0
YES,0,1,123,105,91,3.07,0.2
NO,1,2,104,119,116,2.85,0.3
NO,0,0,108,138,91,2.57,0
NO,0,2,155,158,102,2.93,0.3
YES,0,0,155,129,94,3.95,0.2
NO,1,2,145,160,107,2.84,0
NO,1,1,154,151,88,3.53,0
NO,0,1,139,110,91,3.43,0
YES,0,1,148,118,114,3.89,0.2
YES,0,1,135,130,86,2.89,0.2
YES,0,2,129,131,105,3.83,0.1
NO,1,0,143,109,85,3.63,0.3
NO,0,1,152,169,82,2.54,0.2
NO,0,0,124,142,110,3.01,0.1
YES,1,2,104,139,80,3.41,0.2
YES,0,2,154,116,90,2.59,0.1
